%TF.GenerationSoftware,KiCad,Pcbnew,5.0.1*%
%TF.CreationDate,2019-01-21T14:13:49-08:00*%
%TF.ProjectId,RPS-400_interface,5250532D3430305F696E746572666163,v0.1*%
%TF.SameCoordinates,Original*%
%TF.FileFunction,Profile,NP*%
%FSLAX46Y46*%
G04 Gerber Fmt 4.6, Leading zero omitted, Abs format (unit mm)*
G04 Created by KiCad (PCBNEW 5.0.1) date Mon 21 Jan 2019 02:13:49 PM PST*
%MOMM*%
%LPD*%
G01*
G04 APERTURE LIST*
%ADD10C,0.150000*%
G04 APERTURE END LIST*
D10*
X105000000Y-150000000D02*
G75*
G02X100000000Y-145000000I0J5000000D01*
G01*
X150000000Y-145000000D02*
G75*
G02X145000000Y-150000000I-5000000J0D01*
G01*
X145000000Y-100000000D02*
G75*
G02X150000000Y-105000000I0J-5000000D01*
G01*
X100000000Y-105000000D02*
G75*
G02X105000000Y-100000000I5000000J0D01*
G01*
X100000000Y-145000000D02*
X100000000Y-105000000D01*
X145000000Y-150000000D02*
X105000000Y-150000000D01*
X150000000Y-105000000D02*
X150000000Y-145000000D01*
X105000000Y-100000000D02*
X145000000Y-100000000D01*
M02*
