M48
;DRILL file {KiCad 5.0.1} date Mon 21 Jan 2019 02:13:45 PM PST
;FORMAT={-:-/ absolute / inch / decimal}
FMAT,2
INCH,TZ
T1C0.0157
T2C0.0197
T3C0.0295
T4C0.0315
T5C0.0354
T6C0.0394
T7C0.0400
T8C0.0402
T9C0.1260
%
G90
G05
M72
T1
X4.4016Y-5.1575
X4.4173Y-4.1339
X4.4173Y-5.7087
X4.4409Y-4.9213
X4.6457Y-4.8583
X4.6457Y-4.9213
X4.748Y-4.3307
X4.811Y-4.9213
X4.8425Y-4.8898
X4.8425Y-5.0197
X4.8515Y-4.82
X4.8583Y-4.5906
X4.8808Y-4.8493
X4.8917Y-5.0197
X4.9508Y-5.0197
X4.9606Y-4.4882
X4.9685Y-5.1969
X4.9902Y-4.9705
X5.0098Y-4.9016
X5.0295Y-4.8327
X5.0295Y-5.0098
X5.1575Y-4.8425
X5.1575Y-4.8976
X5.1575Y-5.1969
X5.1969Y-4.9213
X5.3397Y-5.2508
X5.3689Y-5.2216
X5.4252Y-4.1339
X5.4252Y-5.7087
T2
X5.6142Y-5.7087
X5.6418Y-5.6418
X5.6418Y-5.7755
X5.7087Y-5.6142
X5.7087Y-5.8031
X5.7755Y-5.6418
X5.7755Y-5.7755
X5.8031Y-5.7087
X4.0394Y-4.1339
X4.067Y-4.067
X4.067Y-4.2007
X4.1339Y-4.0394
X4.1339Y-4.2283
X4.2007Y-4.067
X4.2007Y-4.2007
X4.2283Y-4.1339
X5.6142Y-4.1339
X5.6418Y-4.067
X5.6418Y-4.2007
X5.7087Y-4.0394
X5.7087Y-4.2283
X5.7755Y-4.067
X5.7755Y-4.2007
X5.8031Y-4.1339
X4.0394Y-5.7087
X4.067Y-5.6418
X4.067Y-5.7755
X4.1339Y-5.6142
X4.1339Y-5.8031
X4.2007Y-5.6418
X4.2007Y-5.7755
X4.2283Y-5.7087
T3
X5.6299Y-4.5276
X5.6299Y-4.6063
X5.6299Y-4.685
X5.6299Y-4.7638
T4
X4.2441Y-4.5276
X4.2441Y-4.6063
X4.2441Y-4.685
X4.2441Y-4.7638
X4.3228Y-4.5276
X4.3228Y-4.6063
X4.3228Y-4.685
X4.3228Y-4.7638
T5
X4.8228Y-4.0689
X4.8228Y-4.1988
X4.9213Y-4.0689
X4.9213Y-4.1988
X5.0197Y-4.0689
X5.0197Y-4.1988
T6
X4.5276Y-5.315
X4.6276Y-5.315
X4.7276Y-5.315
X4.8276Y-5.315
X4.9276Y-5.315
X5.0276Y-5.315
X5.7087Y-5.1134
X5.7087Y-5.2134
X5.7087Y-5.3134
X5.7087Y-5.4134
T7
X4.8213Y-5.6587
X4.8213Y-5.7587
X4.9213Y-5.6587
X4.9213Y-5.7587
X5.0213Y-5.6587
X5.0213Y-5.7587
T8
X4.1339Y-5.1134
X4.1339Y-5.2134
X4.1339Y-5.3134
X4.1339Y-5.4134
T9
X5.7087Y-5.7087
X4.1339Y-4.1339
X5.7087Y-4.1339
X4.1339Y-5.7087
T0
M30
