%TF.GenerationSoftware,KiCad,Pcbnew,5.0.1*%
%TF.CreationDate,2019-01-21T14:13:49-08:00*%
%TF.ProjectId,RPS-400_interface,5250532D3430305F696E746572666163,v0.1*%
%TF.SameCoordinates,Original*%
%TF.FileFunction,Legend,Bot*%
%TF.FilePolarity,Positive*%
%FSLAX46Y46*%
G04 Gerber Fmt 4.6, Leading zero omitted, Abs format (unit mm)*
G04 Created by KiCad (PCBNEW 5.0.1) date Mon 21 Jan 2019 02:13:49 PM PST*
%MOMM*%
%LPD*%
G01*
G04 APERTURE LIST*
%ADD10C,0.120000*%
%ADD11C,0.150000*%
G04 APERTURE END LIST*
D10*
X130200000Y-128750000D02*
G75*
G03X130200000Y-128750000I-950000J0D01*
G01*
X130200000Y-126250000D02*
G75*
G03X130200000Y-126250000I-950000J0D01*
G01*
X130200000Y-123750000D02*
G75*
G03X130200000Y-123750000I-950000J0D01*
G01*
X130200000Y-121250000D02*
G75*
G03X130200000Y-121250000I-950000J0D01*
G01*
X127700000Y-128750000D02*
G75*
G03X127700000Y-128750000I-950000J0D01*
G01*
X109950000Y-123750000D02*
G75*
G03X109950000Y-123750000I-1200000J0D01*
G01*
X105950000Y-123750000D02*
G75*
G03X105950000Y-123750000I-1200000J0D01*
G01*
X125200000Y-128750000D02*
G75*
G03X125200000Y-128750000I-950000J0D01*
G01*
X122700000Y-128750000D02*
G75*
G03X122700000Y-128750000I-950000J0D01*
G01*
D11*
X133238095Y-129202380D02*
X133238095Y-128202380D01*
X132857142Y-128202380D01*
X132761904Y-128250000D01*
X132714285Y-128297619D01*
X132666666Y-128392857D01*
X132666666Y-128535714D01*
X132714285Y-128630952D01*
X132761904Y-128678571D01*
X132857142Y-128726190D01*
X133238095Y-128726190D01*
X131904761Y-128678571D02*
X131761904Y-128726190D01*
X131714285Y-128773809D01*
X131666666Y-128869047D01*
X131666666Y-129011904D01*
X131714285Y-129107142D01*
X131761904Y-129154761D01*
X131857142Y-129202380D01*
X132238095Y-129202380D01*
X132238095Y-128202380D01*
X131904761Y-128202380D01*
X131809523Y-128250000D01*
X131761904Y-128297619D01*
X131714285Y-128392857D01*
X131714285Y-128488095D01*
X131761904Y-128583333D01*
X131809523Y-128630952D01*
X131904761Y-128678571D01*
X132238095Y-128678571D01*
X130809523Y-128535714D02*
X130809523Y-129202380D01*
X131047619Y-128154761D02*
X131285714Y-128869047D01*
X130666666Y-128869047D01*
X133238095Y-126702380D02*
X133238095Y-125702380D01*
X132857142Y-125702380D01*
X132761904Y-125750000D01*
X132714285Y-125797619D01*
X132666666Y-125892857D01*
X132666666Y-126035714D01*
X132714285Y-126130952D01*
X132761904Y-126178571D01*
X132857142Y-126226190D01*
X133238095Y-126226190D01*
X131904761Y-126178571D02*
X131761904Y-126226190D01*
X131714285Y-126273809D01*
X131666666Y-126369047D01*
X131666666Y-126511904D01*
X131714285Y-126607142D01*
X131761904Y-126654761D01*
X131857142Y-126702380D01*
X132238095Y-126702380D01*
X132238095Y-125702380D01*
X131904761Y-125702380D01*
X131809523Y-125750000D01*
X131761904Y-125797619D01*
X131714285Y-125892857D01*
X131714285Y-125988095D01*
X131761904Y-126083333D01*
X131809523Y-126130952D01*
X131904761Y-126178571D01*
X132238095Y-126178571D01*
X130761904Y-125702380D02*
X131238095Y-125702380D01*
X131285714Y-126178571D01*
X131238095Y-126130952D01*
X131142857Y-126083333D01*
X130904761Y-126083333D01*
X130809523Y-126130952D01*
X130761904Y-126178571D01*
X130714285Y-126273809D01*
X130714285Y-126511904D01*
X130761904Y-126607142D01*
X130809523Y-126654761D01*
X130904761Y-126702380D01*
X131142857Y-126702380D01*
X131238095Y-126654761D01*
X131285714Y-126607142D01*
X133238095Y-124202380D02*
X133238095Y-123202380D01*
X132857142Y-123202380D01*
X132761904Y-123250000D01*
X132714285Y-123297619D01*
X132666666Y-123392857D01*
X132666666Y-123535714D01*
X132714285Y-123630952D01*
X132761904Y-123678571D01*
X132857142Y-123726190D01*
X133238095Y-123726190D01*
X131904761Y-123678571D02*
X131761904Y-123726190D01*
X131714285Y-123773809D01*
X131666666Y-123869047D01*
X131666666Y-124011904D01*
X131714285Y-124107142D01*
X131761904Y-124154761D01*
X131857142Y-124202380D01*
X132238095Y-124202380D01*
X132238095Y-123202380D01*
X131904761Y-123202380D01*
X131809523Y-123250000D01*
X131761904Y-123297619D01*
X131714285Y-123392857D01*
X131714285Y-123488095D01*
X131761904Y-123583333D01*
X131809523Y-123630952D01*
X131904761Y-123678571D01*
X132238095Y-123678571D01*
X130809523Y-123202380D02*
X131000000Y-123202380D01*
X131095238Y-123250000D01*
X131142857Y-123297619D01*
X131238095Y-123440476D01*
X131285714Y-123630952D01*
X131285714Y-124011904D01*
X131238095Y-124107142D01*
X131190476Y-124154761D01*
X131095238Y-124202380D01*
X130904761Y-124202380D01*
X130809523Y-124154761D01*
X130761904Y-124107142D01*
X130714285Y-124011904D01*
X130714285Y-123773809D01*
X130761904Y-123678571D01*
X130809523Y-123630952D01*
X130904761Y-123583333D01*
X131095238Y-123583333D01*
X131190476Y-123630952D01*
X131238095Y-123678571D01*
X131285714Y-123773809D01*
X133238095Y-121702380D02*
X133238095Y-120702380D01*
X132857142Y-120702380D01*
X132761904Y-120750000D01*
X132714285Y-120797619D01*
X132666666Y-120892857D01*
X132666666Y-121035714D01*
X132714285Y-121130952D01*
X132761904Y-121178571D01*
X132857142Y-121226190D01*
X133238095Y-121226190D01*
X131904761Y-121178571D02*
X131761904Y-121226190D01*
X131714285Y-121273809D01*
X131666666Y-121369047D01*
X131666666Y-121511904D01*
X131714285Y-121607142D01*
X131761904Y-121654761D01*
X131857142Y-121702380D01*
X132238095Y-121702380D01*
X132238095Y-120702380D01*
X131904761Y-120702380D01*
X131809523Y-120750000D01*
X131761904Y-120797619D01*
X131714285Y-120892857D01*
X131714285Y-120988095D01*
X131761904Y-121083333D01*
X131809523Y-121130952D01*
X131904761Y-121178571D01*
X132238095Y-121178571D01*
X131333333Y-120702380D02*
X130666666Y-120702380D01*
X131095238Y-121702380D01*
X128452380Y-129835000D02*
X127500000Y-129835000D01*
X128261904Y-131154761D02*
X128119047Y-131202380D01*
X127880952Y-131202380D01*
X127785714Y-131154761D01*
X127738095Y-131107142D01*
X127690476Y-131011904D01*
X127690476Y-130916666D01*
X127738095Y-130821428D01*
X127785714Y-130773809D01*
X127880952Y-130726190D01*
X128071428Y-130678571D01*
X128166666Y-130630952D01*
X128214285Y-130583333D01*
X128261904Y-130488095D01*
X128261904Y-130392857D01*
X128214285Y-130297619D01*
X128166666Y-130250000D01*
X128071428Y-130202380D01*
X127833333Y-130202380D01*
X127690476Y-130250000D01*
X127500000Y-129835000D02*
X126547619Y-129835000D01*
X127309523Y-131154761D02*
X127166666Y-131202380D01*
X126928571Y-131202380D01*
X126833333Y-131154761D01*
X126785714Y-131107142D01*
X126738095Y-131011904D01*
X126738095Y-130916666D01*
X126785714Y-130821428D01*
X126833333Y-130773809D01*
X126928571Y-130726190D01*
X127119047Y-130678571D01*
X127214285Y-130630952D01*
X127261904Y-130583333D01*
X127309523Y-130488095D01*
X127309523Y-130392857D01*
X127261904Y-130297619D01*
X127214285Y-130250000D01*
X127119047Y-130202380D01*
X126880952Y-130202380D01*
X126738095Y-130250000D01*
X109654761Y-126404761D02*
X109511904Y-126452380D01*
X109273809Y-126452380D01*
X109178571Y-126404761D01*
X109130952Y-126357142D01*
X109083333Y-126261904D01*
X109083333Y-126166666D01*
X109130952Y-126071428D01*
X109178571Y-126023809D01*
X109273809Y-125976190D01*
X109464285Y-125928571D01*
X109559523Y-125880952D01*
X109607142Y-125833333D01*
X109654761Y-125738095D01*
X109654761Y-125642857D01*
X109607142Y-125547619D01*
X109559523Y-125500000D01*
X109464285Y-125452380D01*
X109226190Y-125452380D01*
X109083333Y-125500000D01*
X108654761Y-126071428D02*
X107892857Y-126071428D01*
X105654761Y-126404761D02*
X105511904Y-126452380D01*
X105273809Y-126452380D01*
X105178571Y-126404761D01*
X105130952Y-126357142D01*
X105083333Y-126261904D01*
X105083333Y-126166666D01*
X105130952Y-126071428D01*
X105178571Y-126023809D01*
X105273809Y-125976190D01*
X105464285Y-125928571D01*
X105559523Y-125880952D01*
X105607142Y-125833333D01*
X105654761Y-125738095D01*
X105654761Y-125642857D01*
X105607142Y-125547619D01*
X105559523Y-125500000D01*
X105464285Y-125452380D01*
X105226190Y-125452380D01*
X105083333Y-125500000D01*
X104654761Y-126071428D02*
X103892857Y-126071428D01*
X104273809Y-126452380D02*
X104273809Y-125690476D01*
X125488095Y-131202380D02*
X125488095Y-130202380D01*
X125107142Y-130202380D01*
X125011904Y-130250000D01*
X124964285Y-130297619D01*
X124916666Y-130392857D01*
X124916666Y-130535714D01*
X124964285Y-130630952D01*
X125011904Y-130678571D01*
X125107142Y-130726190D01*
X125488095Y-130726190D01*
X124488095Y-131202380D02*
X124488095Y-130202380D01*
X124250000Y-130202380D01*
X124107142Y-130250000D01*
X124011904Y-130345238D01*
X123964285Y-130440476D01*
X123916666Y-130630952D01*
X123916666Y-130773809D01*
X123964285Y-130964285D01*
X124011904Y-131059523D01*
X124107142Y-131154761D01*
X124250000Y-131202380D01*
X124488095Y-131202380D01*
X123011904Y-130202380D02*
X123488095Y-130202380D01*
X123535714Y-130678571D01*
X123488095Y-130630952D01*
X123392857Y-130583333D01*
X123154761Y-130583333D01*
X123059523Y-130630952D01*
X123011904Y-130678571D01*
X122964285Y-130773809D01*
X122964285Y-131011904D01*
X123011904Y-131107142D01*
X123059523Y-131154761D01*
X123154761Y-131202380D01*
X123392857Y-131202380D01*
X123488095Y-131154761D01*
X123535714Y-131107142D01*
X121988095Y-131202380D02*
X121988095Y-130202380D01*
X121607142Y-130202380D01*
X121511904Y-130250000D01*
X121464285Y-130297619D01*
X121416666Y-130392857D01*
X121416666Y-130535714D01*
X121464285Y-130630952D01*
X121511904Y-130678571D01*
X121607142Y-130726190D01*
X121988095Y-130726190D01*
X120988095Y-131202380D02*
X120988095Y-130202380D01*
X120750000Y-130202380D01*
X120607142Y-130250000D01*
X120511904Y-130345238D01*
X120464285Y-130440476D01*
X120416666Y-130630952D01*
X120416666Y-130773809D01*
X120464285Y-130964285D01*
X120511904Y-131059523D01*
X120607142Y-131154761D01*
X120750000Y-131202380D01*
X120988095Y-131202380D01*
X119559523Y-130535714D02*
X119559523Y-131202380D01*
X119797619Y-130154761D02*
X120035714Y-130869047D01*
X119416666Y-130869047D01*
M02*
