EESchema Schematic File Version 4
LIBS:RPS-400_interface-cache
EELAYER 26 0
EELAYER END
$Descr A4 11693 8268
encoding utf-8
Sheet 1 1
Title "RPS-400 Interface"
Date "2019-01-21"
Rev "v0.1"
Comp "Jordi Pakey-Rodriguez"
Comment1 ""
Comment2 ""
Comment3 ""
Comment4 ""
$EndDescr
Wire Wire Line
	3700 1400 3400 1400
Wire Wire Line
	3700 1300 3400 1300
Text Label 3400 1400 0    50   ~ 0
FAN_PWM
Text Label 3400 1300 0    50   ~ 0
FAN_RPM
$Comp
L Device:R_Small R4
U 1 1 5B5179E5
P 10300 4800
F 0 "R4" H 10359 4846 50  0000 L CNN
F 1 "10k" H 10359 4755 50  0000 L CNN
F 2 "Resistor_SMD:R_0603_1608Metric" H 10300 4800 50  0001 C CNN
F 3 "~" H 10300 4800 50  0001 C CNN
	1    10300 4800
	1    0    0    -1  
$EndComp
$Comp
L Device:D_Zener_Small D2
U 1 1 5B520105
P 7900 4900
F 0 "D2" V 7854 4968 50  0000 L CNN
F 1 "5V6" V 7945 4968 50  0000 L CNN
F 2 "Diode_SMD:D_MiniMELF" V 7900 4900 50  0001 C CNN
F 3 "~" V 7900 4900 50  0001 C CNN
	1    7900 4900
	0    1    1    0   
$EndComp
$Comp
L Device:C_Small C6
U 1 1 5B521464
P 5900 2000
F 0 "C6" H 5992 2046 50  0000 L CNN
F 1 "100n" H 5992 1955 50  0000 L CNN
F 2 "Capacitor_SMD:C_0603_1608Metric" H 5900 2000 50  0001 C CNN
F 3 "~" H 5900 2000 50  0001 C CNN
	1    5900 2000
	1    0    0    -1  
$EndComp
$Comp
L power:GND #PWR0103
U 1 1 5B52153E
P 5900 2100
F 0 "#PWR0103" H 5900 1850 50  0001 C CNN
F 1 "GND" H 5905 1927 50  0000 C CNN
F 2 "" H 5900 2100 50  0001 C CNN
F 3 "" H 5900 2100 50  0001 C CNN
	1    5900 2100
	1    0    0    -1  
$EndComp
$Comp
L power:+5V #PWR0104
U 1 1 5B521585
P 5900 1900
F 0 "#PWR0104" H 5900 1750 50  0001 C CNN
F 1 "+5V" H 5915 2073 50  0000 C CNN
F 2 "" H 5900 1900 50  0001 C CNN
F 3 "" H 5900 1900 50  0001 C CNN
	1    5900 1900
	1    0    0    -1  
$EndComp
$Comp
L Device:R_Small R6
U 1 1 5B521748
P 7900 4700
F 0 "R6" H 7959 4746 50  0000 L CNN
F 1 "10k" H 7959 4655 50  0000 L CNN
F 2 "Resistor_SMD:R_0603_1608Metric" H 7900 4700 50  0001 C CNN
F 3 "~" H 7900 4700 50  0001 C CNN
	1    7900 4700
	1    0    0    -1  
$EndComp
$Comp
L power:+5V #PWR0105
U 1 1 5B52200A
P 7900 4600
F 0 "#PWR0105" H 7900 4450 50  0001 C CNN
F 1 "+5V" H 7915 4773 50  0000 C CNN
F 2 "" H 7900 4600 50  0001 C CNN
F 3 "" H 7900 4600 50  0001 C CNN
	1    7900 4600
	1    0    0    -1  
$EndComp
$Comp
L power:GND #PWR0106
U 1 1 5B52204C
P 7900 5000
F 0 "#PWR0106" H 7900 4750 50  0001 C CNN
F 1 "GND" H 7905 4827 50  0000 C CNN
F 2 "" H 7900 5000 50  0001 C CNN
F 3 "" H 7900 5000 50  0001 C CNN
	1    7900 5000
	1    0    0    -1  
$EndComp
Text Label 7000 4800 2    50   ~ 0
FAN_RPM
$Comp
L MCU_Microchip_ATmega:ATmega16U2-AU U1
U 1 1 5B52478C
P 5900 4600
F 0 "U1" H 5350 5950 50  0000 C CNN
F 1 "ATmega16U2-AU" H 6300 3250 50  0000 C CNN
F 2 "Package_QFP:TQFP-32_7x7mm_P0.8mm" H 5900 4600 50  0001 C CIN
F 3 "http://ww1.microchip.com/downloads/en/DeviceDoc/doc7799.pdf" H 5900 4600 50  0001 C CNN
	1    5900 4600
	1    0    0    -1  
$EndComp
$Comp
L power:GND #PWR0107
U 1 1 5B539CB6
P 5900 6200
F 0 "#PWR0107" H 5900 5950 50  0001 C CNN
F 1 "GND" H 5905 6027 50  0000 C CNN
F 2 "" H 5900 6200 50  0001 C CNN
F 3 "" H 5900 6200 50  0001 C CNN
	1    5900 6200
	1    0    0    -1  
$EndComp
Wire Wire Line
	5900 6200 5900 6100
Wire Wire Line
	5800 6000 5800 6100
Wire Wire Line
	5800 6100 5900 6100
Connection ~ 5900 6100
Wire Wire Line
	5900 6100 5900 6000
$Comp
L power:+5V #PWR0108
U 1 1 5B53B1BF
P 5800 2700
F 0 "#PWR0108" H 5800 2550 50  0001 C CNN
F 1 "+5V" H 5815 2873 50  0000 C CNN
F 2 "" H 5800 2700 50  0001 C CNN
F 3 "" H 5800 2700 50  0001 C CNN
	1    5800 2700
	1    0    0    -1  
$EndComp
Wire Wire Line
	5900 3200 5900 3100
Wire Wire Line
	5800 3200 5800 3100
Wire Wire Line
	5800 3100 5900 3100
Wire Wire Line
	6600 3800 7000 3800
Wire Wire Line
	6600 3700 7000 3700
Wire Wire Line
	6600 3600 7000 3600
Text Label 7000 3800 2    50   ~ 0
MISO
Text Label 7000 3700 2    50   ~ 0
MOSI
Text Label 7000 3600 2    50   ~ 0
SCK
$Comp
L Device:C_Small C7
U 1 1 5B542C24
P 6300 2000
F 0 "C7" H 6392 2046 50  0000 L CNN
F 1 "100n" H 6392 1955 50  0000 L CNN
F 2 "Capacitor_SMD:C_0603_1608Metric" H 6300 2000 50  0001 C CNN
F 3 "~" H 6300 2000 50  0001 C CNN
	1    6300 2000
	1    0    0    -1  
$EndComp
$Comp
L power:GND #PWR0109
U 1 1 5B542C2A
P 6300 2100
F 0 "#PWR0109" H 6300 1850 50  0001 C CNN
F 1 "GND" H 6305 1927 50  0000 C CNN
F 2 "" H 6300 2100 50  0001 C CNN
F 3 "" H 6300 2100 50  0001 C CNN
	1    6300 2100
	1    0    0    -1  
$EndComp
$Comp
L power:+5V #PWR0110
U 1 1 5B542C30
P 6300 1900
F 0 "#PWR0110" H 6300 1750 50  0001 C CNN
F 1 "+5V" H 6315 2073 50  0000 C CNN
F 2 "" H 6300 1900 50  0001 C CNN
F 3 "" H 6300 1900 50  0001 C CNN
	1    6300 1900
	1    0    0    -1  
$EndComp
Wire Wire Line
	6600 4700 7000 4700
Text Label 7000 4700 2    50   ~ 0
FAN_PWM
Wire Wire Line
	7600 2800 7400 2800
Wire Wire Line
	7600 2900 7400 2900
Wire Wire Line
	7600 3000 7400 3000
Wire Wire Line
	8100 2900 8300 2900
Text Label 8300 2900 2    50   ~ 0
MOSI
Text Label 7400 2800 0    50   ~ 0
MISO
Text Label 7400 2900 0    50   ~ 0
SCK
Text Label 7400 3000 0    50   ~ 0
~RST
$Comp
L Device:R_Small R2
U 1 1 5B54F271
P 5100 3300
F 0 "R2" H 5159 3346 50  0000 L CNN
F 1 "10k" H 5159 3255 50  0000 L CNN
F 2 "Resistor_SMD:R_0603_1608Metric" H 5100 3300 50  0001 C CNN
F 3 "~" H 5100 3300 50  0001 C CNN
	1    5100 3300
	-1   0    0    -1  
$EndComp
$Comp
L power:+5V #PWR0111
U 1 1 5B54F2F5
P 5100 3200
F 0 "#PWR0111" H 5100 3050 50  0001 C CNN
F 1 "+5V" H 5115 3373 50  0000 C CNN
F 2 "" H 5100 3200 50  0001 C CNN
F 3 "" H 5100 3200 50  0001 C CNN
	1    5100 3200
	1    0    0    -1  
$EndComp
Wire Wire Line
	5200 3500 5100 3500
Wire Wire Line
	5100 3500 5100 3400
Text Label 4900 3500 0    50   ~ 0
~RST
$Comp
L Device:C_Small C11
U 1 1 5B55C93D
P 4100 3900
F 0 "C11" H 4192 3946 50  0000 L CNN
F 1 "9p" H 4192 3855 50  0000 L CNN
F 2 "Capacitor_SMD:C_0603_1608Metric" H 4100 3900 50  0001 C CNN
F 3 "~" H 4100 3900 50  0001 C CNN
	1    4100 3900
	1    0    0    -1  
$EndComp
$Comp
L Device:C_Small C10
U 1 1 5B55C9A9
P 4100 3700
F 0 "C10" H 4192 3746 50  0000 L CNN
F 1 "9p" H 4192 3655 50  0000 L CNN
F 2 "Capacitor_SMD:C_0603_1608Metric" H 4100 3700 50  0001 C CNN
F 3 "~" H 4100 3700 50  0001 C CNN
	1    4100 3700
	1    0    0    -1  
$EndComp
$Comp
L power:GND #PWR0112
U 1 1 5B55E53C
P 5000 3800
F 0 "#PWR0112" H 5000 3550 50  0001 C CNN
F 1 "GND" H 5005 3627 50  0000 C CNN
F 2 "" H 5000 3800 50  0001 C CNN
F 3 "" H 5000 3800 50  0001 C CNN
	1    5000 3800
	0    -1   -1   0   
$EndComp
$Comp
L Device:Crystal_GND24 Y1
U 1 1 5B55E80F
P 4500 3800
F 0 "Y1" V 4454 4041 50  0000 L CNN
F 1 "16MHz" V 4545 4041 50  0000 L CNN
F 2 "Crystal:Crystal_SMD_3225-4Pin_3.2x2.5mm" H 4500 3800 50  0001 C CNN
F 3 "~" H 4500 3800 50  0001 C CNN
	1    4500 3800
	0    1    1    0   
$EndComp
Wire Wire Line
	5200 3700 4900 3700
Wire Wire Line
	4900 3700 4900 3600
Wire Wire Line
	4900 3600 4500 3600
Wire Wire Line
	4500 3600 4500 3650
Wire Wire Line
	5200 3900 4900 3900
Wire Wire Line
	4900 3900 4900 4000
Wire Wire Line
	4900 4000 4500 4000
Wire Wire Line
	4500 4000 4500 3950
Wire Wire Line
	4700 3800 5000 3800
Wire Wire Line
	4300 3800 4100 3800
Connection ~ 4100 3800
Wire Wire Line
	4500 3600 4100 3600
Connection ~ 4500 3600
Wire Wire Line
	4500 4000 4100 4000
Connection ~ 4500 4000
Wire Wire Line
	4100 3800 4000 3800
$Comp
L Device:C_Small C9
U 1 1 5B5C2B93
P 4900 4400
F 0 "C9" H 4992 4446 50  0000 L CNN
F 1 "1u" H 4992 4355 50  0000 L CNN
F 2 "Capacitor_SMD:C_0603_1608Metric" H 4900 4400 50  0001 C CNN
F 3 "~" H 4900 4400 50  0001 C CNN
	1    4900 4400
	0    1    1    0   
$EndComp
$Comp
L Device:R_Small R8
U 1 1 5B5C7328
P 3800 4200
F 0 "R8" H 3859 4246 50  0000 L CNN
F 1 "22" H 3859 4155 50  0000 L CNN
F 2 "Resistor_SMD:R_0603_1608Metric" H 3800 4200 50  0001 C CNN
F 3 "~" H 3800 4200 50  0001 C CNN
	1    3800 4200
	0    1    1    0   
$EndComp
$Comp
L Device:R_Small R7
U 1 1 5B5C73C0
P 3800 4100
F 0 "R7" H 3859 4146 50  0000 L CNN
F 1 "22" H 3859 4055 50  0000 L CNN
F 2 "Resistor_SMD:R_0603_1608Metric" H 3800 4100 50  0001 C CNN
F 3 "~" H 3800 4100 50  0001 C CNN
	1    3800 4100
	0    -1   -1   0   
$EndComp
Wire Wire Line
	5200 4400 5000 4400
$Comp
L Device:Ferrite_Bead_Small L1
U 1 1 5B61CD06
P 5900 2900
F 0 "L1" V 5663 2900 50  0000 C CNN
F 1 "600" V 5754 2900 50  0000 C CNN
F 2 "Inductor_SMD:L_0603_1608Metric" V 5830 2900 50  0001 C CNN
F 3 "~" H 5900 2900 50  0001 C CNN
	1    5900 2900
	0    1    1    0   
$EndComp
Connection ~ 5800 3100
Wire Wire Line
	6000 3200 6000 3100
Connection ~ 5800 2900
Wire Wire Line
	5800 2900 5800 2700
Wire Wire Line
	5800 3100 5800 2900
$Comp
L Device:C_Small C8
U 1 1 5B64AD63
P 6100 2900
F 0 "C8" V 6329 2900 50  0000 C CNN
F 1 "100n" V 6238 2900 50  0000 C CNN
F 2 "Capacitor_SMD:C_0603_1608Metric" H 6100 2900 50  0001 C CNN
F 3 "~" H 6100 2900 50  0001 C CNN
	1    6100 2900
	0    1    -1   0   
$EndComp
Connection ~ 6000 2900
$Comp
L power:GND #PWR0113
U 1 1 5B64AF20
P 6200 2900
F 0 "#PWR0113" H 6200 2650 50  0001 C CNN
F 1 "GND" V 6205 2772 50  0000 R CNN
F 2 "" H 6200 2900 50  0001 C CNN
F 3 "" H 6200 2900 50  0001 C CNN
	1    6200 2900
	0    -1   -1   0   
$EndComp
$Comp
L power:GND #PWR0114
U 1 1 5B64B121
P 4000 3500
F 0 "#PWR0114" H 4000 3250 50  0001 C CNN
F 1 "GND" V 4005 3372 50  0000 R CNN
F 2 "" H 4000 3500 50  0001 C CNN
F 3 "" H 4000 3500 50  0001 C CNN
	1    4000 3500
	0    1    -1   0   
$EndComp
$Comp
L power:GND #PWR0115
U 1 1 5B64B1E5
P 4000 3800
F 0 "#PWR0115" H 4000 3550 50  0001 C CNN
F 1 "GND" V 4005 3672 50  0000 R CNN
F 2 "" H 4000 3800 50  0001 C CNN
F 3 "" H 4000 3800 50  0001 C CNN
	1    4000 3800
	0    1    -1   0   
$EndComp
$Comp
L power:GND #PWR0118
U 1 1 5B653D12
P 4800 4400
F 0 "#PWR0118" H 4800 4150 50  0001 C CNN
F 1 "GND" V 4805 4272 50  0000 R CNN
F 2 "" H 4800 4400 50  0001 C CNN
F 3 "" H 4800 4400 50  0001 C CNN
	1    4800 4400
	0    1    -1   0   
$EndComp
$Comp
L Connector_Generic:Conn_02x03_Odd_Even J5
U 1 1 5B545D6A
P 7800 2900
F 0 "J5" H 7850 3217 50  0000 C CNN
F 1 "ICSP" H 7850 3126 50  0000 C CNN
F 2 "Connector_IDC:IDC-Header_2x03_P2.54mm_Vertical" H 7800 2900 50  0001 C CNN
F 3 "~" H 7800 2900 50  0001 C CNN
	1    7800 2900
	1    0    0    -1  
$EndComp
$Comp
L Device:R_Small R1
U 1 1 5B6644BE
P 4100 3500
F 0 "R1" V 3904 3500 50  0000 C CNN
F 1 "330" V 3995 3500 50  0000 C CNN
F 2 "Resistor_SMD:R_0603_1608Metric" H 4100 3500 50  0001 C CNN
F 3 "~" H 4100 3500 50  0001 C CNN
	1    4100 3500
	0    1    1    0   
$EndComp
$Comp
L Device:R_Small R3
U 1 1 5B68DB6C
P 7600 5600
F 0 "R3" H 7659 5646 50  0000 L CNN
F 1 "10k" H 7659 5555 50  0000 L CNN
F 2 "Resistor_SMD:R_0603_1608Metric" H 7600 5600 50  0001 C CNN
F 3 "~" H 7600 5600 50  0001 C CNN
	1    7600 5600
	1    0    0    -1  
$EndComp
$Comp
L power:+5V #PWR0120
U 1 1 5B69F6DC
P 7600 5500
F 0 "#PWR0120" H 7600 5350 50  0001 C CNN
F 1 "+5V" H 7615 5673 50  0000 C CNN
F 2 "" H 7600 5500 50  0001 C CNN
F 3 "" H 7600 5500 50  0001 C CNN
	1    7600 5500
	1    0    0    -1  
$EndComp
Text Label 7000 5700 2    50   ~ 0
~CTS
Wire Wire Line
	6600 3500 7000 3500
Text Label 7000 3500 2    50   ~ 0
~SS
Wire Wire Line
	6600 5300 7000 5300
Wire Wire Line
	6600 5200 7000 5200
Text Label 7000 5200 2    50   ~ 0
RXD
Text Label 7000 5300 2    50   ~ 0
TXD
$Comp
L power:GND #PWR0123
U 1 1 5B6C2A4F
P 3400 1800
F 0 "#PWR0123" H 3400 1550 50  0001 C CNN
F 1 "GND" V 3405 1672 50  0000 R CNN
F 2 "" H 3400 1800 50  0001 C CNN
F 3 "" H 3400 1800 50  0001 C CNN
	1    3400 1800
	0    1    -1   0   
$EndComp
Wire Wire Line
	3700 2100 3400 2100
Text Label 3400 2100 0    50   ~ 0
-S
Wire Wire Line
	4200 2100 4500 2100
Wire Wire Line
	4200 1900 4500 1900
Text Label 4500 2100 2    50   ~ 0
+S
Text Label 4500 1900 2    50   ~ 0
DC-OK
Text Label 3400 1900 0    50   ~ 0
PS-ON
Wire Wire Line
	3700 1900 3400 1900
$Comp
L Connector_Generic:Conn_02x04_Odd_Even J2
U 1 1 5B6D7660
P 3900 1900
F 0 "J2" H 3950 2217 50  0000 C CNN
F 1 "PS Function" H 3950 2126 50  0000 C CNN
F 2 "footprints:Hirose_DF11-8DP-2DS_2x04_P2.00mm_Horizontal" H 3900 1900 50  0001 C CNN
F 3 "~" H 3900 1900 50  0001 C CNN
	1    3900 1900
	1    0    0    -1  
$EndComp
$Comp
L power:+5V #PWR0125
U 1 1 5B7129E4
P 4500 1800
F 0 "#PWR0125" H 4500 1650 50  0001 C CNN
F 1 "+5V" V 4515 1928 50  0000 L CNN
F 2 "" H 4500 1800 50  0001 C CNN
F 3 "" H 4500 1800 50  0001 C CNN
	1    4500 1800
	0    1    -1   0   
$EndComp
$Comp
L power:GND #PWR0129
U 1 1 5B6E3552
P 3400 2000
F 0 "#PWR0129" H 3400 1750 50  0001 C CNN
F 1 "GND" V 3405 1872 50  0000 R CNN
F 2 "" H 3400 2000 50  0001 C CNN
F 3 "" H 3400 2000 50  0001 C CNN
	1    3400 2000
	0    1    -1   0   
$EndComp
$Comp
L power:+12V #PWR0130
U 1 1 5B730907
P 4500 2000
F 0 "#PWR0130" H 4500 1850 50  0001 C CNN
F 1 "+12V" V 4515 2128 50  0000 L CNN
F 2 "" H 4500 2000 50  0001 C CNN
F 3 "" H 4500 2000 50  0001 C CNN
	1    4500 2000
	0    1    -1   0   
$EndComp
$Comp
L power:GND #PWR0141
U 1 1 5B7D0A53
P 8100 3000
F 0 "#PWR0141" H 8100 2750 50  0001 C CNN
F 1 "GND" V 8105 2872 50  0000 R CNN
F 2 "" H 8100 3000 50  0001 C CNN
F 3 "" H 8100 3000 50  0001 C CNN
	1    8100 3000
	0    -1   -1   0   
$EndComp
$Comp
L power:+5V #PWR0142
U 1 1 5B7D0AFE
P 8100 2800
F 0 "#PWR0142" H 8100 2650 50  0001 C CNN
F 1 "+5V" V 8115 2928 50  0000 L CNN
F 2 "" H 8100 2800 50  0001 C CNN
F 3 "" H 8100 2800 50  0001 C CNN
	1    8100 2800
	0    1    -1   0   
$EndComp
Text Label 7000 4400 2    50   ~ 0
PS_ON#
Wire Wire Line
	6600 5600 7000 5600
Text Label 7000 5600 2    50   ~ 0
~RTS
$Comp
L Connector_Generic:Conn_01x06 J6
U 1 1 5B5DACDA
P 9200 2700
F 0 "J6" H 9280 2692 50  0000 L CNN
F 1 "USART" H 9280 2601 50  0000 L CNN
F 2 "Connector_PinHeader_2.54mm:PinHeader_1x06_P2.54mm_Vertical" H 9200 2700 50  0001 C CNN
F 3 "~" H 9200 2700 50  0001 C CNN
	1    9200 2700
	1    0    0    -1  
$EndComp
Wire Wire Line
	9000 3000 8800 3000
Wire Wire Line
	9000 2900 8800 2900
Wire Wire Line
	9000 2800 8800 2800
$Comp
L power:+5V #PWR0151
U 1 1 5B5E18F8
P 8800 2700
F 0 "#PWR0151" H 8800 2550 50  0001 C CNN
F 1 "+5V" V 8815 2828 50  0000 L CNN
F 2 "" H 8800 2700 50  0001 C CNN
F 3 "" H 8800 2700 50  0001 C CNN
	1    8800 2700
	0    -1   -1   0   
$EndComp
$Comp
L power:GND #PWR0152
U 1 1 5B5E197F
P 8800 2500
F 0 "#PWR0152" H 8800 2250 50  0001 C CNN
F 1 "GND" V 8805 2372 50  0000 R CNN
F 2 "" H 8800 2500 50  0001 C CNN
F 3 "" H 8800 2500 50  0001 C CNN
	1    8800 2500
	0    1    -1   0   
$EndComp
Text Label 8800 3000 0    50   ~ 0
~RTS
Text Label 8800 2900 0    50   ~ 0
TXD
Text Label 8800 2800 0    50   ~ 0
RXD
Wire Wire Line
	9000 2600 8800 2600
Text Label 8800 2600 0    50   ~ 0
~CTS
Wire Wire Line
	6600 3900 7000 3900
Wire Wire Line
	6600 4000 7000 4000
Wire Wire Line
	6600 4100 7000 4100
Wire Wire Line
	6600 4200 7000 4200
Wire Wire Line
	6600 5000 7100 5000
Wire Wire Line
	6600 5100 7100 5100
Wire Wire Line
	6600 5400 7000 5400
Wire Wire Line
	6600 5500 7000 5500
Text Label 7000 3900 2    50   ~ 0
PB4
Text Label 7000 4000 2    50   ~ 0
PB5
Text Label 7000 4100 2    50   ~ 0
PB6
Text Label 7000 4200 2    50   ~ 0
PB7
Text Label 7000 5500 2    50   ~ 0
PD5
Wire Wire Line
	6600 4500 7000 4500
Text Label 7000 4500 2    50   ~ 0
DC-OK
Text Label 7000 4600 2    50   ~ 0
LED
$Comp
L power:+5V #PWR03
U 1 1 5B69B751
P 5500 1900
F 0 "#PWR03" H 5500 1750 50  0001 C CNN
F 1 "+5V" H 5515 2073 50  0000 C CNN
F 2 "" H 5500 1900 50  0001 C CNN
F 3 "" H 5500 1900 50  0001 C CNN
	1    5500 1900
	1    0    0    -1  
$EndComp
$Comp
L Device:C_Small C5
U 1 1 5B69B845
P 5500 2000
F 0 "C5" H 5592 2046 50  0000 L CNN
F 1 "10u" H 5592 1955 50  0000 L CNN
F 2 "Capacitor_SMD:C_0805_2012Metric" H 5500 2000 50  0001 C CNN
F 3 "~" H 5500 2000 50  0001 C CNN
	1    5500 2000
	1    0    0    -1  
$EndComp
$Comp
L power:GND #PWR04
U 1 1 5B69BA96
P 5500 2100
F 0 "#PWR04" H 5500 1850 50  0001 C CNN
F 1 "GND" H 5505 1927 50  0000 C CNN
F 2 "" H 5500 2100 50  0001 C CNN
F 3 "" H 5500 2100 50  0001 C CNN
	1    5500 2100
	1    0    0    -1  
$EndComp
$Comp
L Switch:SW_Push SW1
U 1 1 5B6A45EA
P 4500 3500
F 0 "SW1" H 4500 3785 50  0000 C CNN
F 1 "Reset" H 4500 3694 50  0000 C CNN
F 2 "Button_Switch_SMD:SW_SPST_PTS810" H 4500 3700 50  0001 C CNN
F 3 "" H 4500 3700 50  0001 C CNN
	1    4500 3500
	1    0    0    -1  
$EndComp
Connection ~ 5100 3500
Wire Wire Line
	4700 3500 5100 3500
Wire Wire Line
	4200 3500 4300 3500
$Comp
L Switch:SW_Push SW2
U 1 1 5B6A4F0A
P 7900 5700
F 0 "SW2" H 7900 5985 50  0000 C CNN
F 1 "Boot" H 7900 5894 50  0000 C CNN
F 2 "Button_Switch_SMD:SW_SPST_PTS810" H 7900 5900 50  0001 C CNN
F 3 "" H 7900 5900 50  0001 C CNN
	1    7900 5700
	1    0    0    -1  
$EndComp
$Comp
L power:GND #PWR0102
U 1 1 5B6B55DF
P 8100 5700
F 0 "#PWR0102" H 8100 5450 50  0001 C CNN
F 1 "GND" V 8105 5572 50  0000 R CNN
F 2 "" H 8100 5700 50  0001 C CNN
F 3 "" H 8100 5700 50  0001 C CNN
	1    8100 5700
	0    -1   -1   0   
$EndComp
$Comp
L Mechanical:MountingHole_Pad MH1
U 1 1 5B5E67B1
P 7100 1600
F 0 "MH1" H 7200 1651 50  0000 L CNN
F 1 "M3" H 7200 1560 50  0000 L CNN
F 2 "MountingHole:MountingHole_3.2mm_M3_Pad_Via" H 7100 1600 50  0001 C CNN
F 3 "~" H 7100 1600 50  0001 C CNN
	1    7100 1600
	1    0    0    -1  
$EndComp
$Comp
L Mechanical:MountingHole_Pad MH2
U 1 1 5B5F8356
P 7500 1600
F 0 "MH2" H 7600 1651 50  0000 L CNN
F 1 "M3" H 7600 1560 50  0000 L CNN
F 2 "MountingHole:MountingHole_3.2mm_M3_Pad_Via" H 7500 1600 50  0001 C CNN
F 3 "~" H 7500 1600 50  0001 C CNN
	1    7500 1600
	1    0    0    -1  
$EndComp
$Comp
L Mechanical:MountingHole_Pad MH3
U 1 1 5B5F8435
P 7900 1600
F 0 "MH3" H 8000 1651 50  0000 L CNN
F 1 "M3" H 8000 1560 50  0000 L CNN
F 2 "MountingHole:MountingHole_3.2mm_M3_Pad_Via" H 7900 1600 50  0001 C CNN
F 3 "~" H 7900 1600 50  0001 C CNN
	1    7900 1600
	1    0    0    -1  
$EndComp
$Comp
L Mechanical:MountingHole_Pad MH4
U 1 1 5B5F84A1
P 8300 1600
F 0 "MH4" H 8400 1651 50  0000 L CNN
F 1 "M3" H 8400 1560 50  0000 L CNN
F 2 "MountingHole:MountingHole_3.2mm_M3_Pad_Via" H 8300 1600 50  0001 C CNN
F 3 "~" H 8300 1600 50  0001 C CNN
	1    8300 1600
	1    0    0    -1  
$EndComp
$Comp
L Connector_Generic:Conn_01x04 J1
U 1 1 5B6672C1
P 3900 1200
F 0 "J1" H 3980 1192 50  0000 L CNN
F 1 "PS Fan" H 3980 1101 50  0000 L CNN
F 2 "Connector:FanPinHeader_1x04_P2.54mm_Vertical" H 3900 1200 50  0001 C CNN
F 3 "~" H 3900 1200 50  0001 C CNN
	1    3900 1200
	1    0    0    -1  
$EndComp
$Comp
L Device:C_Small C1
U 1 1 5B71C850
P 7100 1800
F 0 "C1" H 7192 1846 50  0000 L CNN
F 1 "10n" H 7192 1755 50  0000 L CNN
F 2 "Capacitor_SMD:C_0805_2012Metric" H 7100 1800 50  0001 C CNN
F 3 "~" H 7100 1800 50  0001 C CNN
	1    7100 1800
	1    0    0    -1  
$EndComp
$Comp
L Device:C_Small C2
U 1 1 5B71C932
P 7500 1800
F 0 "C2" H 7592 1846 50  0000 L CNN
F 1 "10n" H 7592 1755 50  0000 L CNN
F 2 "Capacitor_SMD:C_0805_2012Metric" H 7500 1800 50  0001 C CNN
F 3 "~" H 7500 1800 50  0001 C CNN
	1    7500 1800
	1    0    0    -1  
$EndComp
$Comp
L Device:C_Small C3
U 1 1 5B71F564
P 7900 1800
F 0 "C3" H 7992 1846 50  0000 L CNN
F 1 "10n" H 7992 1755 50  0000 L CNN
F 2 "Capacitor_SMD:C_0805_2012Metric" H 7900 1800 50  0001 C CNN
F 3 "~" H 7900 1800 50  0001 C CNN
	1    7900 1800
	1    0    0    -1  
$EndComp
$Comp
L Device:C_Small C4
U 1 1 5B71F5DA
P 8300 1800
F 0 "C4" H 8392 1846 50  0000 L CNN
F 1 "10n" H 8392 1755 50  0000 L CNN
F 2 "Capacitor_SMD:C_0805_2012Metric" H 8300 1800 50  0001 C CNN
F 3 "~" H 8300 1800 50  0001 C CNN
	1    8300 1800
	1    0    0    -1  
$EndComp
Wire Wire Line
	7100 1900 7100 2000
Wire Wire Line
	7100 2000 7500 2000
Wire Wire Line
	7500 2000 7500 1900
Wire Wire Line
	7900 2000 7900 1900
Connection ~ 7500 2000
Wire Wire Line
	7900 2000 8300 2000
Wire Wire Line
	8300 2000 8300 1900
Connection ~ 7900 2000
$Comp
L power:GND #PWR06
U 1 1 5B7304F2
P 7100 2100
F 0 "#PWR06" H 7100 1850 50  0001 C CNN
F 1 "GND" H 7105 1927 50  0000 C CNN
F 2 "" H 7100 2100 50  0001 C CNN
F 3 "" H 7100 2100 50  0001 C CNN
	1    7100 2100
	1    0    0    -1  
$EndComp
Wire Wire Line
	7500 2000 7900 2000
Wire Wire Line
	7100 2100 7100 2000
Connection ~ 7100 2000
$Comp
L Device:LED_Small D1
U 1 1 5B62D407
P 7900 3800
F 0 "D1" V 7946 3732 50  0000 R CNN
F 1 "White" V 7855 3732 50  0000 R CNN
F 2 "LED_SMD:LED_0603_1608Metric_Castellated" V 7900 3800 50  0001 C CNN
F 3 "~" V 7900 3800 50  0001 C CNN
	1    7900 3800
	0    -1   -1   0   
$EndComp
$Comp
L Device:R_Small R5
U 1 1 5B62D81F
P 7900 3600
F 0 "R5" H 7959 3646 50  0000 L CNN
F 1 "330" H 7959 3555 50  0000 L CNN
F 2 "Resistor_SMD:R_0603_1608Metric" H 7900 3600 50  0001 C CNN
F 3 "~" H 7900 3600 50  0001 C CNN
	1    7900 3600
	1    0    0    -1  
$EndComp
$Comp
L power:GND #PWR09
U 1 1 5B630BCB
P 7900 3900
F 0 "#PWR09" H 7900 3650 50  0001 C CNN
F 1 "GND" H 7905 3727 50  0000 C CNN
F 2 "" H 7900 3900 50  0001 C CNN
F 3 "" H 7900 3900 50  0001 C CNN
	1    7900 3900
	-1   0    0    -1  
$EndComp
$Comp
L power:PWR_FLAG #FLG0101
U 1 1 5B672875
P 6000 3100
F 0 "#FLG0101" H 6000 3175 50  0001 C CNN
F 1 "PWR_FLAG" V 6000 3228 50  0000 L CNN
F 2 "" H 6000 3100 50  0001 C CNN
F 3 "~" H 6000 3100 50  0001 C CNN
	1    6000 3100
	0    1    1    0   
$EndComp
Connection ~ 6000 3100
Wire Wire Line
	6000 3100 6000 2900
$Comp
L power:PWR_FLAG #FLG0104
U 1 1 5B679F78
P 5800 3100
F 0 "#FLG0104" H 5800 3175 50  0001 C CNN
F 1 "PWR_FLAG" V 5800 3228 50  0000 L CNN
F 2 "" H 5800 3100 50  0001 C CNN
F 3 "~" H 5800 3100 50  0001 C CNN
	1    5800 3100
	0    -1   -1   0   
$EndComp
$Comp
L Connector_Generic:Conn_01x04 J3
U 1 1 5B9677D2
P 3900 2600
F 0 "J3" H 3979 2592 50  0000 L CNN
F 1 "Motherboard" H 3979 2501 50  0000 L CNN
F 2 "Connector_JST:JST_PH_S4B-PH-K_1x04_P2.00mm_Horizontal" H 3900 2600 50  0001 C CNN
F 3 "~" H 3900 2600 50  0001 C CNN
	1    3900 2600
	1    0    0    -1  
$EndComp
$Comp
L power:GND #PWR0101
U 1 1 5B96ADD7
P 3700 2500
F 0 "#PWR0101" H 3700 2250 50  0001 C CNN
F 1 "GND" V 3705 2372 50  0000 R CNN
F 2 "" H 3700 2500 50  0001 C CNN
F 3 "" H 3700 2500 50  0001 C CNN
	1    3700 2500
	0    1    -1   0   
$EndComp
$Comp
L power:+5V #PWR0121
U 1 1 5B9A5E1F
P 3700 2600
F 0 "#PWR0121" H 3700 2450 50  0001 C CNN
F 1 "+5V" V 3715 2728 50  0000 L CNN
F 2 "" H 3700 2600 50  0001 C CNN
F 3 "" H 3700 2600 50  0001 C CNN
	1    3700 2600
	0    -1   -1   0   
$EndComp
Text Label 3400 2700 0    50   ~ 0
PS_ON#
Wire Wire Line
	3700 2700 3400 2700
Text Label 3400 2800 0    50   ~ 0
PWR_OK
Wire Wire Line
	3700 2800 3400 2800
$Comp
L Switch:SW_DPDT_x2 SW3
U 1 1 5B9B0C2A
P 9100 5100
F 0 "SW3" H 9100 5385 50  0000 C CNN
F 1 "Spoof" H 9100 5294 50  0000 C CNN
F 2 "Button_Switch_THT:SW_CuK_JS202011CQN_DPDT_Straight" H 9100 5100 50  0001 C CNN
F 3 "" H 9100 5100 50  0001 C CNN
	1    9100 5100
	1    0    0    -1  
$EndComp
$Comp
L Switch:SW_DPDT_x2 SW3
U 2 1 5B9B0D2D
P 9100 5700
F 0 "SW3" H 9100 5985 50  0000 C CNN
F 1 "Spoof" H 9100 5894 50  0000 C CNN
F 2 "Button_Switch_THT:SW_CuK_JS202011CQN_DPDT_Straight" H 9100 5700 50  0001 C CNN
F 3 "" H 9100 5700 50  0001 C CNN
	2    9100 5700
	1    0    0    -1  
$EndComp
Wire Wire Line
	8900 5100 8600 5100
Wire Wire Line
	8900 5700 8600 5700
Text Label 8600 5100 0    50   ~ 0
PS-ON
Text Label 8600 5700 0    50   ~ 0
PWR_OK
Wire Wire Line
	9800 5600 9300 5600
Text Label 9800 5600 2    50   ~ 0
DC-OK
$Comp
L 74xGxx:74LVC1G14 U2
U 1 1 5B9C8EFB
P 10000 5000
F 0 "U2" H 9975 4733 50  0000 C CNN
F 1 "74LVC1G14" H 9975 4824 50  0000 C CNN
F 2 "Package_TO_SOT_SMD:SOT-23-5" H 10000 5000 50  0001 C CNN
F 3 "http://www.ti.com/lit/sg/scyt129e/scyt129e.pdf" H 10000 5000 50  0001 C CNN
	1    10000 5000
	-1   0    0    1   
$EndComp
Wire Wire Line
	6600 4400 7000 4400
Text Label 9800 5200 2    50   ~ 0
PS_ON_MCU
Wire Wire Line
	9800 5800 9300 5800
Text Label 9800 5800 2    50   ~ 0
DC_OK_MCU
Wire Wire Line
	10300 5000 10700 5000
Text Label 10700 5000 2    50   ~ 0
PS_ON#
Wire Wire Line
	3700 2000 3400 2000
Wire Wire Line
	3400 1800 3700 1800
Wire Wire Line
	4200 1800 4500 1800
Wire Wire Line
	4200 2000 4500 2000
Wire Wire Line
	3700 1200 3400 1200
Wire Wire Line
	3400 1100 3700 1100
Wire Wire Line
	10300 4900 10300 5000
$Comp
L power:+5V #PWR0160
U 1 1 5BA86C57
P 10300 4700
F 0 "#PWR0160" H 10300 4550 50  0001 C CNN
F 1 "+5V" H 10315 4873 50  0000 C CNN
F 2 "" H 10300 4700 50  0001 C CNN
F 3 "" H 10300 4700 50  0001 C CNN
	1    10300 4700
	1    0    0    -1  
$EndComp
Wire Wire Line
	9000 2500 8800 2500
Wire Wire Line
	8800 2700 9000 2700
Text Label 7100 5000 2    50   ~ 0
PS_ON_MCU
Text Label 7100 5100 2    50   ~ 0
DC_OK_MCU
Wire Wire Line
	9800 5200 9300 5200
$Comp
L power:+5V #PWR0161
U 1 1 5BC0BA9A
P 10000 5100
F 0 "#PWR0161" H 10000 4950 50  0001 C CNN
F 1 "+5V" H 10015 5273 50  0000 C CNN
F 2 "" H 10000 5100 50  0001 C CNN
F 3 "" H 10000 5100 50  0001 C CNN
	1    10000 5100
	-1   0    0    1   
$EndComp
Wire Wire Line
	9750 5000 9300 5000
Connection ~ 10300 5000
Text Label 9650 5000 2    50   ~ 0
~PS_ON#
$Comp
L Connector:TestPoint TP7
U 1 1 5BA113D0
P 7000 4200
F 0 "TP7" V 6954 4388 50  0001 L CNN
F 1 "PB7" V 7045 4388 50  0001 L CNN
F 2 "TestPoint:TestPoint_Pad_D1.5mm" H 7200 4200 50  0001 C CNN
F 3 "~" H 7200 4200 50  0001 C CNN
	1    7000 4200
	0    1    1    0   
$EndComp
$Comp
L Connector:TestPoint TP6
U 1 1 5BA1143B
P 7000 4100
F 0 "TP6" V 6954 4288 50  0001 L CNN
F 1 "PB6" V 7045 4288 50  0001 L CNN
F 2 "TestPoint:TestPoint_Pad_D1.5mm" H 7200 4100 50  0001 C CNN
F 3 "~" H 7200 4100 50  0001 C CNN
	1    7000 4100
	0    1    1    0   
$EndComp
$Comp
L Connector:TestPoint TP5
U 1 1 5BA114A6
P 7000 4000
F 0 "TP5" V 6954 4188 50  0001 L CNN
F 1 "PB5" V 7045 4188 50  0001 L CNN
F 2 "TestPoint:TestPoint_Pad_D1.5mm" H 7200 4000 50  0001 C CNN
F 3 "~" H 7200 4000 50  0001 C CNN
	1    7000 4000
	0    1    1    0   
$EndComp
$Comp
L Connector:TestPoint TP4
U 1 1 5BA11511
P 7000 3900
F 0 "TP4" V 6954 4088 50  0001 L CNN
F 1 "PB4" V 7045 4088 50  0001 L CNN
F 2 "TestPoint:TestPoint_Pad_D1.5mm" H 7200 3900 50  0001 C CNN
F 3 "~" H 7200 3900 50  0001 C CNN
	1    7000 3900
	0    1    1    0   
$EndComp
Wire Wire Line
	7600 5700 7700 5700
Wire Wire Line
	3700 4100 3300 4100
Wire Wire Line
	3700 4200 3300 4200
$Comp
L power:GND #PWR0134
U 1 1 5BE55DF6
P 3400 1100
F 0 "#PWR0134" H 3400 850 50  0001 C CNN
F 1 "GND" V 3405 972 50  0000 R CNN
F 2 "" H 3400 1100 50  0001 C CNN
F 3 "" H 3400 1100 50  0001 C CNN
	1    3400 1100
	0    1    -1   0   
$EndComp
$Comp
L Connector:TestPoint TP3
U 1 1 5BECC72E
P 7000 3500
F 0 "TP3" V 6954 3688 50  0001 L CNN
F 1 "~SS" V 7045 3688 50  0001 L CNN
F 2 "TestPoint:TestPoint_Pad_D1.5mm" H 7200 3500 50  0001 C CNN
F 3 "~" H 7200 3500 50  0001 C CNN
	1    7000 3500
	0    1    1    0   
$EndComp
$Comp
L power:PWR_FLAG #FLG0106
U 1 1 5BEFB812
P 8300 2000
F 0 "#FLG0106" H 8300 2075 50  0001 C CNN
F 1 "PWR_FLAG" V 8300 2128 50  0000 L CNN
F 2 "" H 8300 2000 50  0001 C CNN
F 3 "~" H 8300 2000 50  0001 C CNN
	1    8300 2000
	0    1    1    0   
$EndComp
Connection ~ 8300 2000
Wire Wire Line
	7000 4600 6600 4600
Wire Wire Line
	7900 3500 7700 3500
Text Label 7700 3500 0    50   ~ 0
LED
Wire Wire Line
	6600 4800 7000 4800
Wire Wire Line
	7900 4800 7400 4800
Connection ~ 7900 4800
Text Label 7400 4800 0    50   ~ 0
FAN_RPM
Wire Wire Line
	7000 5700 6600 5700
Wire Wire Line
	7600 5700 7400 5700
Connection ~ 7600 5700
Text Label 7400 5700 0    50   ~ 0
~CTS
$Comp
L power:GND #PWR0159
U 1 1 5BE82B48
P 3300 4000
F 0 "#PWR0159" H 3300 3750 50  0001 C CNN
F 1 "GND" V 3305 3872 50  0000 R CNN
F 2 "" H 3300 4000 50  0001 C CNN
F 3 "" H 3300 4000 50  0001 C CNN
	1    3300 4000
	0    -1   -1   0   
$EndComp
$Comp
L Connector_Generic:Conn_01x04 J4
U 1 1 5C054264
P 3100 4100
F 0 "J4" H 3020 4417 50  0000 C CNN
F 1 "USB" H 3020 4326 50  0000 C CNN
F 2 "Connector_PinHeader_2.54mm:PinHeader_1x04_P2.54mm_Vertical" H 3100 4100 50  0001 C CNN
F 3 "~" H 3100 4100 50  0001 C CNN
	1    3100 4100
	-1   0    0    -1  
$EndComp
$Comp
L power:+5V #PWR0124
U 1 1 5B6F27D1
P 3300 4300
F 0 "#PWR0124" H 3300 4150 50  0001 C CNN
F 1 "+5V" V 3315 4428 50  0000 L CNN
F 2 "" H 3300 4300 50  0001 C CNN
F 3 "" H 3300 4300 50  0001 C CNN
	1    3300 4300
	0    1    -1   0   
$EndComp
$Comp
L Connector:TestPoint TP2
U 1 1 5B5E7109
P 4500 2100
F 0 "TP2" V 4500 2287 50  0000 L CNN
F 1 "S+" V 4545 2288 50  0001 L CNN
F 2 "TestPoint:TestPoint_Pad_D2.0mm" H 4700 2100 50  0001 C CNN
F 3 "~" H 4700 2100 50  0001 C CNN
	1    4500 2100
	0    1    1    0   
$EndComp
$Comp
L Connector:TestPoint TP1
U 1 1 5B60D5D6
P 3400 2100
F 0 "TP1" V 3400 2287 50  0000 L CNN
F 1 "S-" V 3445 2288 50  0001 L CNN
F 2 "TestPoint:TestPoint_Pad_D2.0mm" H 3600 2100 50  0001 C CNN
F 3 "~" H 3600 2100 50  0001 C CNN
	1    3400 2100
	0    -1   -1   0   
$EndComp
$Comp
L power:+12V #PWR0126
U 1 1 5B67332C
P 5900 1300
F 0 "#PWR0126" H 5900 1150 50  0001 C CNN
F 1 "+12V" H 5915 1473 50  0000 C CNN
F 2 "" H 5900 1300 50  0001 C CNN
F 3 "" H 5900 1300 50  0001 C CNN
	1    5900 1300
	1    0    0    -1  
$EndComp
$Comp
L power:PWR_FLAG #FLG0103
U 1 1 5B6735F5
P 5900 1300
F 0 "#FLG0103" H 5900 1375 50  0001 C CNN
F 1 "PWR_FLAG" H 5900 1473 50  0000 C CNN
F 2 "" H 5900 1300 50  0001 C CNN
F 3 "~" H 5900 1300 50  0001 C CNN
	1    5900 1300
	-1   0    0    1   
$EndComp
Text Label 7000 5400 2    50   ~ 0
PD4
$Comp
L Connector:TestPoint TP8
U 1 1 5C062B07
P 7000 5400
F 0 "TP8" V 6954 5588 50  0001 L CNN
F 1 "PD4" V 7045 5588 50  0001 L CNN
F 2 "TestPoint:TestPoint_Pad_D1.5mm" H 7200 5400 50  0001 C CNN
F 3 "~" H 7200 5400 50  0001 C CNN
	1    7000 5400
	0    1    1    0   
$EndComp
$Comp
L Connector:TestPoint TP9
U 1 1 5C062BC6
P 7000 5500
F 0 "TP9" V 6954 5688 50  0001 L CNN
F 1 "PD5" V 7045 5688 50  0001 L CNN
F 2 "TestPoint:TestPoint_Pad_D1.5mm" H 7200 5500 50  0001 C CNN
F 3 "~" H 7200 5500 50  0001 C CNN
	1    7000 5500
	0    1    1    0   
$EndComp
Text Label 5000 4400 0    50   ~ 0
UCAP
Wire Wire Line
	5200 4100 3900 4100
Wire Wire Line
	3900 4200 5200 4200
Text Label 6000 3100 1    50   ~ 0
AVCC
Text Label 3900 4100 0    50   ~ 0
D+
Text Label 3900 4200 0    50   ~ 0
D-
Text Label 4600 3600 0    50   ~ 0
XTAL1
Text Label 4600 4000 0    50   ~ 0
XTAL2
$Comp
L power:+12V #PWR0117
U 1 1 5C1BE96C
P 3400 1200
F 0 "#PWR0117" H 3400 1050 50  0001 C CNN
F 1 "+12V" V 3415 1328 50  0000 L CNN
F 2 "" H 3400 1200 50  0001 C CNN
F 3 "" H 3400 1200 50  0001 C CNN
	1    3400 1200
	0    -1   -1   0   
$EndComp
Text Label 3400 4100 0    50   ~ 0
USBD+
Text Label 3400 4200 0    50   ~ 0
USBD-
Text Notes 7550 1450 0    50   ~ 0
Chassis
$EndSCHEMATC
