EESchema Schematic File Version 4
LIBS:pcie_x16_riser_female-cache
EELAYER 26 0
EELAYER END
$Descr A3 16535 11693
encoding utf-8
Sheet 1 1
Title ""
Date ""
Rev ""
Comp ""
Comment1 ""
Comment2 ""
Comment3 ""
Comment4 ""
$EndDescr
$Comp
L PCIe_x16_female J1
U 1 1 59B047EA
P 8500 3000
F 0 "J1" H 8500 4250 60  0000 C CNN
F 1 "PCIe_x16_female" H 8500 -4250 60  0000 C CNN
F 2 "Connectors_jordi:PCIe_x16_female_THT" H 8700 3000 60  0001 C CNN
F 3 "" H 8700 3000 60  0001 C CNN
	1    8500 3000
	1    0    0    -1  
$EndComp
Wire Wire Line
	6500 2000 6700 2000
Wire Wire Line
	6500 1900 6700 1900
Connection ~ 6700 2000
Wire Wire Line
	6700 1800 6500 1800
Connection ~ 6700 1900
Wire Wire Line
	6700 1700 6500 1700
Connection ~ 6700 1800
Wire Wire Line
	6500 1600 6700 1600
Connection ~ 6700 1700
Wire Wire Line
	6500 1500 6700 1500
Connection ~ 6700 1600
Wire Wire Line
	6500 2500 6700 2500
Wire Wire Line
	6700 2500 6700 2600
Wire Wire Line
	6500 2600 6700 2600
Wire Wire Line
	6500 2800 6700 2800
Wire Wire Line
	6700 2900 6500 2900
Connection ~ 6700 2800
Wire Wire Line
	6800 3100 6500 3100
Wire Wire Line
	6500 3300 6900 3300
Wire Wire Line
	6700 1500 6700 1600
Wire Wire Line
	6500 1400 6600 1400
Wire Wire Line
	6600 1400 6600 2100
Wire Wire Line
	6600 4800 6600 5700
Connection ~ 6600 2100
Connection ~ 6600 2400
Wire Wire Line
	6600 3000 6500 3000
Wire Wire Line
	6600 3200 6500 3200
Connection ~ 6600 3000
Wire Wire Line
	6600 3500 6500 3500
Connection ~ 6600 3200
Wire Wire Line
	6500 2400 6600 2400
Wire Wire Line
	7800 3200 7900 3200
Wire Wire Line
	7800 2200 7800 2500
Wire Wire Line
	7800 2500 7900 2500
Wire Wire Line
	7900 2200 7800 2200
Connection ~ 7800 2500
Wire Wire Line
	6500 2100 6600 2100
Wire Wire Line
	7000 3300 7900 3300
Wire Wire Line
	7900 3400 7100 3400
Wire Wire Line
	7800 3500 7900 3500
Connection ~ 7800 3200
Wire Wire Line
	7800 3700 7900 3700
Connection ~ 7800 3500
Wire Wire Line
	7800 4000 7900 4000
Connection ~ 7800 3700
Wire Wire Line
	7200 3600 7900 3600
Wire Wire Line
	6600 3900 6500 3900
Connection ~ 6600 3500
Wire Wire Line
	7300 3800 7900 3800
Wire Wire Line
	7900 3900 7400 3900
Wire Wire Line
	7900 3100 6900 3100
Wire Wire Line
	6900 3100 6900 3300
Wire Wire Line
	7900 2900 6800 2900
Wire Wire Line
	6800 2900 6800 3100
Wire Wire Line
	6700 2800 6700 2900
Wire Wire Line
	6500 2700 7900 2700
Connection ~ 6700 2600
Wire Wire Line
	7900 2400 6700 2400
Wire Wire Line
	6700 2400 6700 2300
Wire Wire Line
	6700 2300 6500 2300
Wire Wire Line
	6500 2200 6800 2200
Wire Wire Line
	6800 2200 6800 2300
Wire Wire Line
	6800 2300 7900 2300
Wire Wire Line
	6700 2100 7900 2100
Wire Wire Line
	6500 3600 7000 3600
Wire Wire Line
	7000 3600 7000 3300
Wire Wire Line
	6500 3700 7100 3700
Wire Wire Line
	7100 3700 7100 3400
Wire Wire Line
	6500 3800 7200 3800
Wire Wire Line
	7200 3800 7200 3600
Wire Wire Line
	6500 4000 7300 4000
Wire Wire Line
	7300 4000 7300 3800
Wire Wire Line
	6500 4100 7400 4100
Wire Wire Line
	7400 4100 7400 3900
Wire Wire Line
	6500 4200 7900 4200
Wire Wire Line
	6500 4300 7900 4300
Wire Wire Line
	6600 4400 6500 4400
Connection ~ 6600 3900
Wire Wire Line
	7800 4100 7900 4100
Connection ~ 7800 4000
Wire Wire Line
	7800 4400 7900 4400
Connection ~ 7800 4100
Wire Wire Line
	7800 4500 7900 4500
Connection ~ 7800 4400
Wire Wire Line
	7800 4800 7900 4800
Connection ~ 7800 4500
Wire Wire Line
	7800 5100 7900 5100
Connection ~ 7800 4800
Wire Wire Line
	7800 5400 7900 5400
Connection ~ 7800 5100
Wire Wire Line
	7800 5500 7900 5500
Connection ~ 7800 5400
Wire Wire Line
	7800 5800 7900 5800
Connection ~ 7800 5500
Wire Wire Line
	7800 5900 7900 5900
Connection ~ 7800 5800
Wire Wire Line
	7800 6200 7900 6200
Connection ~ 7800 5900
Wire Wire Line
	7800 6300 7900 6300
Connection ~ 7800 6200
Wire Wire Line
	7800 6600 7900 6600
Connection ~ 7800 6300
Wire Wire Line
	6600 4800 6500 4800
Wire Wire Line
	6600 5700 6500 5700
Wire Wire Line
	7200 4600 7900 4600
Wire Wire Line
	7900 4700 7300 4700
Wire Wire Line
	7300 4700 7300 5000
Wire Wire Line
	7300 5000 6500 5000
Wire Wire Line
	6500 4900 7200 4900
Wire Wire Line
	7200 4900 7200 4600
Wire Wire Line
	7900 4900 7400 4900
Wire Wire Line
	7400 4900 7400 5100
Wire Wire Line
	7400 5100 6500 5100
Wire Wire Line
	7900 5000 7500 5000
Wire Wire Line
	7500 5000 7500 5200
Wire Wire Line
	7500 5200 6500 5200
Wire Wire Line
	7900 5200 7600 5200
Wire Wire Line
	7600 5200 7600 5300
Wire Wire Line
	7600 5300 6500 5300
Wire Wire Line
	6500 5400 7700 5400
Wire Wire Line
	7700 5400 7700 5300
Wire Wire Line
	7700 5300 7900 5300
Wire Wire Line
	7900 5600 7700 5600
Wire Wire Line
	7700 5600 7700 5500
Wire Wire Line
	7700 5500 6500 5500
Wire Wire Line
	6500 5600 7600 5600
Wire Wire Line
	7600 5600 7600 5700
Wire Wire Line
	7600 5700 7900 5700
Wire Wire Line
	6600 6100 6500 6100
Connection ~ 6600 5700
Wire Wire Line
	6600 7000 6500 7000
Connection ~ 6600 6100
Wire Wire Line
	6600 7400 6500 7400
Connection ~ 6600 7000
Wire Wire Line
	6600 8300 6500 8300
Connection ~ 6600 7400
Wire Wire Line
	6600 8700 6500 8700
Connection ~ 6600 8300
Wire Wire Line
	6600 9600 6500 9600
Connection ~ 6600 8700
Wire Wire Line
	6500 6400 7900 6400
Wire Wire Line
	7900 6500 6500 6500
Wire Wire Line
	6500 6300 7700 6300
Wire Wire Line
	7700 6300 7700 6100
Wire Wire Line
	7700 6100 7900 6100
Wire Wire Line
	7900 6000 7600 6000
Wire Wire Line
	7600 6000 7600 6200
Wire Wire Line
	7600 6200 6500 6200
Wire Wire Line
	6500 6600 7700 6600
Wire Wire Line
	7700 6600 7700 6700
Wire Wire Line
	7700 6700 7900 6700
Wire Wire Line
	6500 6700 6600 6700
Connection ~ 6600 6700
Wire Wire Line
	7800 6800 7900 6800
Connection ~ 7800 6600
Wire Wire Line
	7800 7100 7900 7100
Connection ~ 7800 6800
Wire Wire Line
	7800 7200 7900 7200
Connection ~ 7800 7100
Wire Wire Line
	7800 7500 7900 7500
Connection ~ 7800 7200
Wire Wire Line
	7800 7600 7900 7600
Connection ~ 7800 7500
Wire Wire Line
	7800 7900 7900 7900
Connection ~ 7800 7600
Wire Wire Line
	7800 8000 7900 8000
Connection ~ 7800 7900
Wire Wire Line
	7800 8300 7900 8300
Connection ~ 7800 8000
Wire Wire Line
	7800 8400 7900 8400
Connection ~ 7800 8300
Wire Wire Line
	6500 6800 7700 6800
Wire Wire Line
	7700 6800 7700 6900
Wire Wire Line
	7700 6900 7900 6900
Wire Wire Line
	6500 6900 7600 6900
Wire Wire Line
	7600 6900 7600 7000
Wire Wire Line
	7600 7000 7900 7000
Wire Wire Line
	6500 7700 7900 7700
Wire Wire Line
	7900 7800 6500 7800
Wire Wire Line
	6500 7600 7700 7600
Wire Wire Line
	7700 7600 7700 7400
Wire Wire Line
	7700 7400 7900 7400
Wire Wire Line
	6500 7500 7600 7500
Wire Wire Line
	7600 7500 7600 7300
Wire Wire Line
	7600 7300 7900 7300
Wire Wire Line
	6500 7900 7700 7900
Wire Wire Line
	7700 7900 7700 8100
Wire Wire Line
	7700 8100 7900 8100
Wire Wire Line
	7900 8200 7600 8200
Wire Wire Line
	7600 8200 7600 8000
Wire Wire Line
	7600 8000 6500 8000
Wire Wire Line
	6500 8100 7500 8100
Wire Wire Line
	7500 8100 7500 8500
Wire Wire Line
	7500 8500 7900 8500
Wire Wire Line
	7900 8600 7400 8600
Wire Wire Line
	7400 8600 7400 8200
Wire Wire Line
	7400 8200 6500 8200
Wire Wire Line
	7800 8700 7900 8700
Connection ~ 7800 8400
Wire Wire Line
	7800 8800 7900 8800
Connection ~ 7800 8700
Wire Wire Line
	7800 9100 7900 9100
Connection ~ 7800 8800
Wire Wire Line
	7800 9200 7900 9200
Connection ~ 7800 9100
Wire Wire Line
	7800 9500 7900 9500
Connection ~ 7800 9200
Wire Wire Line
	7800 9600 7900 9600
Connection ~ 7800 9500
Wire Wire Line
	7800 9900 7900 9900
Connection ~ 7800 9600
Wire Wire Line
	6500 8800 7700 8800
Wire Wire Line
	7700 8800 7700 8900
Wire Wire Line
	7700 8900 7900 8900
Wire Wire Line
	7900 9000 7600 9000
Wire Wire Line
	7600 9000 7600 8900
Wire Wire Line
	7600 8900 6500 8900
Wire Wire Line
	6500 9000 7500 9000
Wire Wire Line
	7500 9000 7500 9300
Wire Wire Line
	7500 9300 7900 9300
Wire Wire Line
	6500 9100 7400 9100
Wire Wire Line
	7400 9100 7400 9400
Wire Wire Line
	7400 9400 7900 9400
Wire Wire Line
	6500 9200 7300 9200
Wire Wire Line
	7300 9200 7300 9700
Wire Wire Line
	7300 9700 7900 9700
Wire Wire Line
	7900 9800 7200 9800
Wire Wire Line
	7200 9800 7200 9300
Wire Wire Line
	7200 9300 6500 9300
Wire Wire Line
	6500 9400 7100 9400
Wire Wire Line
	7100 9400 7100 10000
Wire Wire Line
	7100 10000 7900 10000
Wire Wire Line
	7900 10100 7000 10100
Wire Wire Line
	7000 10100 7000 9500
Wire Wire Line
	7000 9500 6500 9500
Wire Wire Line
	10500 1500 10200 1500
Wire Wire Line
	10200 1500 10200 1900
Wire Wire Line
	10200 1900 9100 1900
Wire Wire Line
	9100 2000 10300 2000
Wire Wire Line
	10300 2100 9100 2100
Connection ~ 10300 2000
Wire Wire Line
	10500 1700 10300 1700
Wire Wire Line
	10500 1800 10300 1800
Connection ~ 10300 1800
Wire Wire Line
	10300 1900 10500 1900
Connection ~ 10300 1900
Wire Wire Line
	10300 1700 10300 1800
Wire Wire Line
	10500 1400 10400 1400
Wire Wire Line
	10400 1400 10400 1600
Wire Wire Line
	10400 1600 10500 1600
Wire Wire Line
	10400 2100 10500 2100
Connection ~ 10400 1600
Wire Wire Line
	10500 2200 10000 2200
Wire Wire Line
	10000 2200 10000 2300
Wire Wire Line
	10000 2300 9100 2300
Wire Wire Line
	10500 2300 10100 2300
Wire Wire Line
	10100 2300 10100 2400
Wire Wire Line
	10100 2400 9100 2400
Wire Wire Line
	9100 2500 10200 2500
Wire Wire Line
	10200 2500 10200 2400
Wire Wire Line
	10200 2400 10500 2400
Wire Wire Line
	9100 2600 10300 2600
Wire Wire Line
	10300 2600 10300 2500
Wire Wire Line
	10300 2500 10500 2500
Wire Wire Line
	10400 2600 10500 2600
Connection ~ 10400 2100
Wire Wire Line
	9100 2200 9200 2200
Wire Wire Line
	9200 2200 9200 3100
Wire Wire Line
	9200 3100 9100 3100
Wire Wire Line
	9100 2700 10300 2700
Wire Wire Line
	9100 2800 10300 2800
Wire Wire Line
	10300 2900 10500 2900
Wire Wire Line
	10300 2700 10300 2800
Connection ~ 10300 2800
Connection ~ 10300 2700
Wire Wire Line
	10300 3000 10500 3000
Connection ~ 10300 2900
Wire Wire Line
	10400 3100 10500 3100
Connection ~ 10400 2600
Wire Wire Line
	10400 3200 10500 3200
Connection ~ 10400 3100
Wire Wire Line
	10500 3300 10200 3300
Wire Wire Line
	10200 3300 10200 2900
Wire Wire Line
	10200 2900 9100 2900
Wire Wire Line
	9200 3400 9100 3400
Connection ~ 9200 3100
Wire Wire Line
	10400 3500 10500 3500
Connection ~ 10400 3200
Wire Wire Line
	10400 4400 10500 4400
Connection ~ 10400 3500
Wire Wire Line
	10500 3600 9900 3600
Wire Wire Line
	9900 3600 9900 3200
Wire Wire Line
	9900 3200 9100 3200
Wire Wire Line
	9100 3300 9800 3300
Wire Wire Line
	9800 3300 9800 3700
Wire Wire Line
	9800 3700 10500 3700
Wire Wire Line
	10500 3800 9700 3800
Wire Wire Line
	9700 3800 9700 3500
Wire Wire Line
	9700 3500 9100 3500
Wire Wire Line
	9100 3600 9600 3600
Wire Wire Line
	9600 3600 9600 3900
Wire Wire Line
	9600 3900 10500 3900
Wire Wire Line
	10500 4000 10400 4000
Connection ~ 10400 4000
Wire Wire Line
	10500 4100 9500 4100
Wire Wire Line
	9500 4100 9500 3800
Wire Wire Line
	9500 3800 9100 3800
Wire Wire Line
	9200 3700 9100 3700
Connection ~ 9200 3400
Wire Wire Line
	9200 3900 9100 3900
Connection ~ 9200 3700
Wire Wire Line
	10500 4200 9400 4200
Wire Wire Line
	9400 4200 9400 4000
Wire Wire Line
	9400 4000 9100 4000
Wire Wire Line
	10500 4300 9300 4300
Wire Wire Line
	9300 4300 9300 4100
Wire Wire Line
	9300 4100 9100 4100
Wire Wire Line
	9200 4200 9100 4200
Connection ~ 9200 3900
Wire Wire Line
	9200 4300 9100 4300
Connection ~ 9200 4200
Wire Wire Line
	10400 4800 10500 4800
Connection ~ 10400 4400
Wire Wire Line
	10400 5700 10500 5700
Connection ~ 10400 4800
Wire Wire Line
	10400 6100 10500 6100
Connection ~ 10400 5700
Wire Wire Line
	10400 7000 10500 7000
Connection ~ 10400 6100
Wire Wire Line
	10400 7400 10500 7400
Connection ~ 10400 7000
Wire Wire Line
	10400 8300 10500 8300
Connection ~ 10400 7400
Wire Wire Line
	10400 8700 10500 8700
Connection ~ 10400 8300
Wire Wire Line
	10400 9600 10500 9600
Connection ~ 10400 8700
Wire Wire Line
	10500 5600 9300 5600
Wire Wire Line
	9300 5600 9300 5500
Wire Wire Line
	9300 5500 9100 5500
Wire Wire Line
	9100 5400 9400 5400
Wire Wire Line
	9400 5400 9400 5500
Wire Wire Line
	9400 5500 10500 5500
Wire Wire Line
	10500 5400 9500 5400
Wire Wire Line
	9500 5400 9500 5200
Wire Wire Line
	9500 5200 9100 5200
Wire Wire Line
	10500 5300 9600 5300
Wire Wire Line
	9600 5300 9600 5100
Wire Wire Line
	9600 5100 9100 5100
Wire Wire Line
	10500 5200 9700 5200
Wire Wire Line
	9700 5200 9700 4900
Wire Wire Line
	9700 4900 9100 4900
Wire Wire Line
	9100 4800 9800 4800
Wire Wire Line
	9800 4800 9800 5100
Wire Wire Line
	9800 5100 10500 5100
Wire Wire Line
	10500 5000 9900 5000
Wire Wire Line
	9900 5000 9900 4500
Wire Wire Line
	9900 4500 9100 4500
Wire Wire Line
	9100 4400 10000 4400
Wire Wire Line
	10000 4400 10000 4900
Wire Wire Line
	10000 4900 10500 4900
Wire Wire Line
	9200 4600 9100 4600
Connection ~ 9200 4300
Wire Wire Line
	9200 4700 9100 4700
Connection ~ 9200 4600
Wire Wire Line
	9200 5000 9100 5000
Connection ~ 9200 4700
Wire Wire Line
	9200 5300 9100 5300
Connection ~ 9200 5000
Wire Wire Line
	9200 5600 9100 5600
Connection ~ 9200 5300
Wire Wire Line
	9200 5700 9100 5700
Connection ~ 9200 5600
Wire Wire Line
	10500 6900 10400 6900
Connection ~ 10400 6900
Wire Wire Line
	10500 6800 9300 6800
Wire Wire Line
	9300 6800 9300 6900
Wire Wire Line
	9300 6900 9100 6900
Wire Wire Line
	10500 6700 9100 6700
Wire Wire Line
	9100 6600 10500 6600
Wire Wire Line
	10500 6500 9300 6500
Wire Wire Line
	9300 6500 9300 6300
Wire Wire Line
	9300 6300 9100 6300
Wire Wire Line
	9100 6200 9400 6200
Wire Wire Line
	9400 6200 9400 6400
Wire Wire Line
	9400 6400 10500 6400
Wire Wire Line
	10500 6300 9500 6300
Wire Wire Line
	9500 6300 9500 5900
Wire Wire Line
	9500 5900 9100 5900
Wire Wire Line
	9100 5800 9600 5800
Wire Wire Line
	9600 5800 9600 6200
Wire Wire Line
	9600 6200 10500 6200
Wire Wire Line
	9200 6000 9100 6000
Connection ~ 9200 5700
Wire Wire Line
	9200 6100 9100 6100
Connection ~ 9200 6000
Wire Wire Line
	9200 6400 9100 6400
Connection ~ 9200 6100
Wire Wire Line
	9200 6500 9100 6500
Connection ~ 9200 6400
Wire Wire Line
	9200 6800 9100 6800
Connection ~ 9200 6500
Wire Wire Line
	10500 8000 9100 8000
Wire Wire Line
	9100 7900 10500 7900
Wire Wire Line
	10500 7800 9300 7800
Wire Wire Line
	9300 7800 9300 7600
Wire Wire Line
	9300 7600 9100 7600
Wire Wire Line
	9200 7000 9100 7000
Connection ~ 9200 6800
Wire Wire Line
	9200 7300 9100 7300
Connection ~ 9200 7000
Wire Wire Line
	9200 7400 9100 7400
Connection ~ 9200 7300
Wire Wire Line
	9200 7700 9100 7700
Connection ~ 9200 7400
Wire Wire Line
	9200 7800 9100 7800
Connection ~ 9200 7700
Wire Wire Line
	9200 8100 9100 8100
Connection ~ 9200 7800
Wire Wire Line
	9200 8200 9100 8200
Connection ~ 9200 8100
Wire Wire Line
	9200 8500 9100 8500
Connection ~ 9200 8200
Wire Wire Line
	9200 8600 9100 8600
Connection ~ 9200 8500
Wire Wire Line
	10500 7700 9400 7700
Wire Wire Line
	9400 7700 9400 7500
Wire Wire Line
	9400 7500 9100 7500
Wire Wire Line
	9100 7200 9500 7200
Wire Wire Line
	9500 7200 9500 7600
Wire Wire Line
	9500 7600 10500 7600
Wire Wire Line
	10500 7500 9600 7500
Wire Wire Line
	9600 7500 9600 7100
Wire Wire Line
	9600 7100 9100 7100
Wire Wire Line
	10500 8100 9300 8100
Wire Wire Line
	9300 8100 9300 8300
Wire Wire Line
	9300 8300 9100 8300
Wire Wire Line
	9100 8400 9400 8400
Wire Wire Line
	9400 8400 9400 8200
Wire Wire Line
	9400 8200 10500 8200
Wire Wire Line
	9200 8900 9100 8900
Connection ~ 9200 8600
Wire Wire Line
	9200 9000 9100 9000
Connection ~ 9200 8900
Wire Wire Line
	9200 9300 9100 9300
Connection ~ 9200 9000
Wire Wire Line
	9200 9400 9100 9400
Connection ~ 9200 9300
Wire Wire Line
	9200 9700 9100 9700
Connection ~ 9200 9400
Wire Wire Line
	9200 9800 9100 9800
Connection ~ 9200 9700
Wire Wire Line
	9200 10100 9100 10100
Connection ~ 9200 9800
Wire Wire Line
	9100 8800 9300 8800
Wire Wire Line
	9300 8800 9300 8900
Wire Wire Line
	9300 8900 10500 8900
Wire Wire Line
	9100 8700 9400 8700
Wire Wire Line
	9400 8700 9400 8800
Wire Wire Line
	9400 8800 10500 8800
Wire Wire Line
	9100 9100 9300 9100
Wire Wire Line
	9300 9100 9300 9000
Wire Wire Line
	9300 9000 10500 9000
Wire Wire Line
	9100 9200 9400 9200
Wire Wire Line
	9400 9200 9400 9100
Wire Wire Line
	9400 9100 10500 9100
Wire Wire Line
	10500 9200 9500 9200
Wire Wire Line
	9500 9200 9500 9500
Wire Wire Line
	9500 9500 9100 9500
Wire Wire Line
	9100 9600 9600 9600
Wire Wire Line
	9600 9600 9600 9300
Wire Wire Line
	9600 9300 10500 9300
Wire Wire Line
	10500 9400 9700 9400
Wire Wire Line
	9700 9400 9700 9900
Wire Wire Line
	9700 9900 9100 9900
Wire Wire Line
	9100 10000 9800 10000
Wire Wire Line
	9800 10000 9800 9500
Wire Wire Line
	9800 9500 10500 9500
Wire Wire Line
	6700 2000 7900 2000
Wire Wire Line
	6700 2000 6700 2100
Wire Wire Line
	6700 1900 7900 1900
Wire Wire Line
	6700 1900 6700 2000
Wire Wire Line
	6700 1800 6700 1900
Wire Wire Line
	6700 1700 6700 1800
Wire Wire Line
	6700 1600 6700 1700
Wire Wire Line
	6700 2800 7900 2800
Wire Wire Line
	6600 2100 6600 2400
Wire Wire Line
	6600 2400 6600 3000
Wire Wire Line
	6600 3000 6600 3200
Wire Wire Line
	6600 3200 6600 3500
Wire Wire Line
	7800 2500 7800 3200
Wire Wire Line
	7800 3200 7800 3500
Wire Wire Line
	7800 3500 7800 3700
Wire Wire Line
	7800 3700 7800 4000
Wire Wire Line
	6600 3500 6600 3900
Wire Wire Line
	6700 2600 7900 2600
Wire Wire Line
	6600 3900 6600 4400
Wire Wire Line
	7800 4000 7800 4100
Wire Wire Line
	7800 4100 7800 4400
Wire Wire Line
	7800 4400 7800 4500
Wire Wire Line
	7800 4500 7800 4800
Wire Wire Line
	7800 4800 7800 5100
Wire Wire Line
	7800 5100 7800 5400
Wire Wire Line
	7800 5400 7800 5500
Wire Wire Line
	7800 5500 7800 5800
Wire Wire Line
	7800 5800 7800 5900
Wire Wire Line
	7800 5900 7800 6200
Wire Wire Line
	7800 6200 7800 6300
Wire Wire Line
	7800 6300 7800 6600
Wire Wire Line
	6600 5700 6600 6100
Wire Wire Line
	6600 6100 6600 6700
Wire Wire Line
	6600 7000 6600 7400
Wire Wire Line
	6600 7400 6600 8300
Wire Wire Line
	6600 8300 6600 8700
Wire Wire Line
	6600 8700 6600 9600
Wire Wire Line
	6600 6700 6600 7000
Wire Wire Line
	7800 6600 7800 6800
Wire Wire Line
	7800 6800 7800 7100
Wire Wire Line
	7800 7100 7800 7200
Wire Wire Line
	7800 7200 7800 7500
Wire Wire Line
	7800 7500 7800 7600
Wire Wire Line
	7800 7600 7800 7900
Wire Wire Line
	7800 7900 7800 8000
Wire Wire Line
	7800 8000 7800 8300
Wire Wire Line
	7800 8300 7800 8400
Wire Wire Line
	7800 8400 7800 8700
Wire Wire Line
	7800 8700 7800 8800
Wire Wire Line
	7800 8800 7800 9100
Wire Wire Line
	7800 9100 7800 9200
Wire Wire Line
	7800 9200 7800 9500
Wire Wire Line
	7800 9500 7800 9600
Wire Wire Line
	7800 9600 7800 9900
Wire Wire Line
	10300 2000 10500 2000
Wire Wire Line
	10300 2000 10300 2100
Wire Wire Line
	10300 1800 10300 1900
Wire Wire Line
	10300 1900 10300 2000
Wire Wire Line
	10400 1600 10400 2100
Wire Wire Line
	10400 2100 10400 2600
Wire Wire Line
	10300 2800 10500 2800
Wire Wire Line
	10300 2800 10300 2900
Wire Wire Line
	10300 2700 10500 2700
Wire Wire Line
	10300 2900 10300 3000
Wire Wire Line
	10400 2600 10400 3100
Wire Wire Line
	10400 3100 10400 3200
Wire Wire Line
	9200 3100 9200 3400
Wire Wire Line
	10400 3200 10400 3500
Wire Wire Line
	10400 3500 10400 4000
Wire Wire Line
	10400 4000 10400 4400
Wire Wire Line
	9200 3400 9200 3700
Wire Wire Line
	9200 3700 9200 3900
Wire Wire Line
	9200 3900 9200 4200
Wire Wire Line
	9200 4200 9200 4300
Wire Wire Line
	10400 4400 10400 4800
Wire Wire Line
	10400 4800 10400 5700
Wire Wire Line
	10400 5700 10400 6100
Wire Wire Line
	10400 6100 10400 6900
Wire Wire Line
	10400 7000 10400 7400
Wire Wire Line
	10400 7400 10400 8300
Wire Wire Line
	10400 8300 10400 8700
Wire Wire Line
	10400 8700 10400 9600
Wire Wire Line
	9200 4300 9200 4600
Wire Wire Line
	9200 4600 9200 4700
Wire Wire Line
	9200 4700 9200 5000
Wire Wire Line
	9200 5000 9200 5300
Wire Wire Line
	9200 5300 9200 5600
Wire Wire Line
	9200 5600 9200 5700
Wire Wire Line
	10400 6900 10400 7000
Wire Wire Line
	9200 5700 9200 6000
Wire Wire Line
	9200 6000 9200 6100
Wire Wire Line
	9200 6100 9200 6400
Wire Wire Line
	9200 6400 9200 6500
Wire Wire Line
	9200 6500 9200 6800
Wire Wire Line
	9200 6800 9200 7000
Wire Wire Line
	9200 7000 9200 7300
Wire Wire Line
	9200 7300 9200 7400
Wire Wire Line
	9200 7400 9200 7700
Wire Wire Line
	9200 7700 9200 7800
Wire Wire Line
	9200 7800 9200 8100
Wire Wire Line
	9200 8100 9200 8200
Wire Wire Line
	9200 8200 9200 8500
Wire Wire Line
	9200 8500 9200 8600
Wire Wire Line
	9200 8600 9200 8900
Wire Wire Line
	9200 8900 9200 9000
Wire Wire Line
	9200 9000 9200 9300
Wire Wire Line
	9200 9300 9200 9400
Wire Wire Line
	9200 9400 9200 9700
Wire Wire Line
	9200 9700 9200 9800
Wire Wire Line
	9200 9800 9200 10100
$Comp
L Connector_Generic:Conn_01x20 J3
U 1 1 5C78294D
P 6300 2300
F 0 "J3" H 6220 3417 50  0000 C CNN
F 1 "Conn_01x20" H 6220 3326 50  0000 C CNN
F 2 "" H 6300 2300 50  0001 C CNN
F 3 "~" H 6300 2300 50  0001 C CNN
	1    6300 2300
	-1   0    0    -1  
$EndComp
$Comp
L Connector_Generic:Conn_01x10 J5
U 1 1 5C782D3D
P 6300 3900
F 0 "J5" H 6220 4517 50  0000 C CNN
F 1 "Conn_01x10" H 6220 4426 50  0000 C CNN
F 2 "" H 6300 3900 50  0001 C CNN
F 3 "~" H 6300 3900 50  0001 C CNN
	1    6300 3900
	-1   0    0    -1  
$EndComp
$Comp
L Connector_Generic:Conn_01x10 J7
U 1 1 5C782E6B
P 6300 5200
F 0 "J7" H 6220 5817 50  0000 C CNN
F 1 "Conn_01x10" H 6220 5726 50  0000 C CNN
F 2 "" H 6300 5200 50  0001 C CNN
F 3 "~" H 6300 5200 50  0001 C CNN
	1    6300 5200
	-1   0    0    -1  
$EndComp
$Comp
L Connector_Generic:Conn_01x10 J9
U 1 1 5C782F4D
P 6300 6500
F 0 "J9" H 6220 7117 50  0000 C CNN
F 1 "Conn_01x10" H 6220 7026 50  0000 C CNN
F 2 "" H 6300 6500 50  0001 C CNN
F 3 "~" H 6300 6500 50  0001 C CNN
	1    6300 6500
	-1   0    0    -1  
$EndComp
$Comp
L Connector_Generic:Conn_01x10 J11
U 1 1 5C783020
P 6300 7800
F 0 "J11" H 6220 8417 50  0000 C CNN
F 1 "Conn_01x10" H 6220 8326 50  0000 C CNN
F 2 "" H 6300 7800 50  0001 C CNN
F 3 "~" H 6300 7800 50  0001 C CNN
	1    6300 7800
	-1   0    0    -1  
$EndComp
$Comp
L Connector_Generic:Conn_01x10 J13
U 1 1 5C783078
P 6300 9100
F 0 "J13" H 6220 9717 50  0000 C CNN
F 1 "Conn_01x10" H 6220 9626 50  0000 C CNN
F 2 "" H 6300 9100 50  0001 C CNN
F 3 "~" H 6300 9100 50  0001 C CNN
	1    6300 9100
	-1   0    0    -1  
$EndComp
$Comp
L Connector_Generic:Conn_01x20 J2
U 1 1 5C7832CD
P 10700 2300
F 0 "J2" H 10780 2292 50  0000 L CNN
F 1 "Conn_01x20" H 10780 2201 50  0000 L CNN
F 2 "" H 10700 2300 50  0001 C CNN
F 3 "~" H 10700 2300 50  0001 C CNN
	1    10700 2300
	1    0    0    -1  
$EndComp
$Comp
L Connector_Generic:Conn_01x10 J4
U 1 1 5C783507
P 10700 3900
F 0 "J4" H 10780 3892 50  0000 L CNN
F 1 "Conn_01x10" H 10780 3801 50  0000 L CNN
F 2 "" H 10700 3900 50  0001 C CNN
F 3 "~" H 10700 3900 50  0001 C CNN
	1    10700 3900
	1    0    0    -1  
$EndComp
$Comp
L Connector_Generic:Conn_01x10 J6
U 1 1 5C78369D
P 10700 5200
F 0 "J6" H 10780 5192 50  0000 L CNN
F 1 "Conn_01x10" H 10780 5101 50  0000 L CNN
F 2 "" H 10700 5200 50  0001 C CNN
F 3 "~" H 10700 5200 50  0001 C CNN
	1    10700 5200
	1    0    0    -1  
$EndComp
$Comp
L Connector_Generic:Conn_01x10 J8
U 1 1 5C7836EB
P 10700 6500
F 0 "J8" H 10780 6492 50  0000 L CNN
F 1 "Conn_01x10" H 10780 6401 50  0000 L CNN
F 2 "" H 10700 6500 50  0001 C CNN
F 3 "~" H 10700 6500 50  0001 C CNN
	1    10700 6500
	1    0    0    -1  
$EndComp
$Comp
L Connector_Generic:Conn_01x10 J10
U 1 1 5C78377B
P 10700 7800
F 0 "J10" H 10780 7792 50  0000 L CNN
F 1 "Conn_01x10" H 10780 7701 50  0000 L CNN
F 2 "" H 10700 7800 50  0001 C CNN
F 3 "~" H 10700 7800 50  0001 C CNN
	1    10700 7800
	1    0    0    -1  
$EndComp
$Comp
L Connector_Generic:Conn_01x10 J12
U 1 1 5C78383B
P 10700 9100
F 0 "J12" H 10780 9092 50  0000 L CNN
F 1 "Conn_01x10" H 10780 9001 50  0000 L CNN
F 2 "" H 10700 9100 50  0001 C CNN
F 3 "~" H 10700 9100 50  0001 C CNN
	1    10700 9100
	1    0    0    -1  
$EndComp
$EndSCHEMATC
