EESchema Schematic File Version 4
LIBS:DC-ATX-cache
EELAYER 26 0
EELAYER END
$Descr A4 11693 8268
encoding utf-8
Sheet 2 2
Title ""
Date ""
Rev ""
Comp ""
Comment1 ""
Comment2 ""
Comment3 ""
Comment4 ""
$EndDescr
Wire Wire Line
	6500 4300 6400 4300
Wire Wire Line
	5900 4700 6000 4700
Connection ~ 6000 4700
Wire Wire Line
	6000 4700 6100 4700
Wire Wire Line
	5600 4000 5600 3700
Text Notes 5550 3450 0    50   ~ 0
Connect EN to something besides VIN?\nDetermine SS cap value (C3)
$Comp
L power:GND #PWR0104
U 1 1 5C5804D6
P 5600 4800
F 0 "#PWR0104" H 5600 4550 50  0001 C CNN
F 1 "GND" H 5605 4627 50  0000 C CNN
F 2 "" H 5600 4800 50  0001 C CNN
F 3 "" H 5600 4800 50  0001 C CNN
	1    5600 4800
	1    0    0    -1  
$EndComp
Connection ~ 5600 3700
Wire Wire Line
	4700 4000 4700 4100
Wire Wire Line
	4700 4100 5100 4100
Wire Wire Line
	5100 4000 5100 4100
Wire Wire Line
	6700 4200 6400 4200
Wire Wire Line
	6700 4000 6700 4200
Wire Wire Line
	4700 3700 5100 3700
$Comp
L Device:C_Small C1
U 1 1 5C582391
P 4700 3900
F 0 "C1" H 4792 3946 50  0000 L CNN
F 1 "10u" H 4792 3855 50  0000 L CNN
F 2 "Capacitor_SMD:C_0805_2012Metric" H 4700 3900 50  0001 C CNN
F 3 "~" H 4700 3900 50  0001 C CNN
	1    4700 3900
	1    0    0    -1  
$EndComp
$Comp
L Device:C_Small C4
U 1 1 5C5823E1
P 5100 3900
F 0 "C4" H 5192 3946 50  0000 L CNN
F 1 "100n" H 5192 3855 50  0000 L CNN
F 2 "Capacitor_SMD:C_0603_1608Metric" H 5100 3900 50  0001 C CNN
F 3 "~" H 5100 3900 50  0001 C CNN
	1    5100 3900
	1    0    0    -1  
$EndComp
Wire Wire Line
	4700 3700 4700 3800
Wire Wire Line
	5100 3800 5100 3700
Connection ~ 5100 3700
Wire Wire Line
	5100 3700 5600 3700
$Comp
L Device:C_Small C3
U 1 1 5C582C2A
P 5500 4100
F 0 "C3" V 5271 4100 50  0000 C CNN
F 1 "3n3" V 5362 4100 50  0000 C CNN
F 2 "Capacitor_SMD:C_0603_1608Metric" H 5500 4100 50  0001 C CNN
F 3 "~" H 5500 4100 50  0001 C CNN
	1    5500 4100
	0    1    1    0   
$EndComp
Connection ~ 5100 4100
Wire Wire Line
	5100 4100 5400 4100
$Comp
L power:GND #PWR0105
U 1 1 5C583827
P 4700 4800
F 0 "#PWR0105" H 4700 4550 50  0001 C CNN
F 1 "GND" H 4705 4627 50  0000 C CNN
F 2 "" H 4700 4800 50  0001 C CNN
F 3 "" H 4700 4800 50  0001 C CNN
	1    4700 4800
	1    0    0    -1  
$EndComp
Connection ~ 4700 4100
Wire Wire Line
	4700 4800 4700 4100
Text HLabel 4600 3700 0    50   Input ~ 0
VIN
Wire Wire Line
	4700 3700 4600 3700
Connection ~ 4700 3700
Wire Wire Line
	6000 4700 6000 4800
$Comp
L power:GND #PWR0106
U 1 1 5C57F5B4
P 6000 4800
F 0 "#PWR0106" H 6000 4550 50  0001 C CNN
F 1 "GND" H 6005 4627 50  0000 C CNN
F 2 "" H 6000 4800 50  0001 C CNN
F 3 "" H 6000 4800 50  0001 C CNN
	1    6000 4800
	1    0    0    -1  
$EndComp
$Comp
L Device:L_Small L1
U 1 1 5C585E15
P 6500 4000
F 0 "L1" V 6685 4000 50  0000 C CNN
F 1 "2u2" V 6594 4000 50  0000 C CNN
F 2 "" H 6500 4000 50  0001 C CNN
F 3 "~" H 6500 4000 50  0001 C CNN
	1    6500 4000
	0    -1   -1   0   
$EndComp
Wire Wire Line
	6600 4000 6700 4000
Text HLabel 4600 4100 0    50   UnSpc ~ 0
GND
Wire Wire Line
	4600 4100 4700 4100
Wire Wire Line
	5600 4300 5600 4800
Wire Wire Line
	5600 4200 5600 4300
Connection ~ 5600 4300
Wire Wire Line
	5600 3700 5900 3700
Wire Wire Line
	6100 3700 5900 3700
Connection ~ 5900 3700
$Comp
L Regulator_Switching:TPS62133 U?
U 1 1 5C57EA20
P 6000 4200
AR Path="/5C57EA20" Ref="U?"  Part="1" 
AR Path="/5C57E6F2/5C57EA20" Ref="U1"  Part="1" 
F 0 "U1" H 6000 4878 50  0000 C CNN
F 1 "TPS62133" H 6000 4787 50  0000 C CNN
F 2 "Package_DFN_QFN:QFN-16-1EP_3x3mm_P0.5mm_EP1.8x1.8mm" H 6150 3750 50  0001 L CNN
F 3 "http://www.ti.com/lit/ds/symlink/tps62130.pdf" H 6000 4200 50  0001 C CNN
	1    6000 4200
	1    0    0    -1  
$EndComp
Text HLabel 6500 4300 2    50   Output ~ 0
PG
Connection ~ 6700 4000
Text HLabel 7000 4000 2    50   Output ~ 0
VOUT
Wire Wire Line
	6700 4000 6900 4000
Wire Wire Line
	6900 4000 7000 4000
Connection ~ 6900 4000
Wire Wire Line
	6900 4000 6900 4100
$Comp
L Device:C_Small C2
U 1 1 5C581792
P 6900 4200
F 0 "C2" H 6992 4246 50  0000 L CNN
F 1 "22u" H 6992 4155 50  0000 L CNN
F 2 "Capacitor_SMD:C_0805_2012Metric" H 6900 4200 50  0001 C CNN
F 3 "~" H 6900 4200 50  0001 C CNN
	1    6900 4200
	1    0    0    -1  
$EndComp
Wire Wire Line
	6900 4800 6900 4400
Wire Wire Line
	6900 4400 6900 4300
Connection ~ 6900 4400
Wire Wire Line
	6400 4400 6900 4400
$Comp
L power:GND #PWR0107
U 1 1 5C57F2C4
P 6900 4800
F 0 "#PWR0107" H 6900 4550 50  0001 C CNN
F 1 "GND" H 6905 4627 50  0000 C CNN
F 2 "" H 6900 4800 50  0001 C CNN
F 3 "" H 6900 4800 50  0001 C CNN
	1    6900 4800
	1    0    0    -1  
$EndComp
$EndSCHEMATC
