EESchema Schematic File Version 4
LIBS:DC-ATX-cache
EELAYER 26 0
EELAYER END
$Descr A4 11693 8268
encoding utf-8
Sheet 1 2
Title ""
Date ""
Rev ""
Comp ""
Comment1 ""
Comment2 ""
Comment3 ""
Comment4 ""
$EndDescr
$Comp
L Device:R R1
U 1 1 5C53448A
P 5500 4050
F 0 "R1" H 5570 4096 50  0000 L CNN
F 1 "10k" H 5570 4005 50  0000 L CNN
F 2 "Resistor_SMD:R_0603_1608Metric" V 5430 4050 50  0001 C CNN
F 3 "~" H 5500 4050 50  0001 C CNN
	1    5500 4050
	1    0    0    -1  
$EndComp
Wire Wire Line
	5500 3900 5700 3900
Wire Wire Line
	5500 4200 5900 4200
$Comp
L power:GND #PWR0101
U 1 1 5C534848
P 5900 4800
F 0 "#PWR0101" H 5900 4550 50  0001 C CNN
F 1 "GND" H 5905 4627 50  0000 C CNN
F 2 "" H 5900 4800 50  0001 C CNN
F 3 "" H 5900 4800 50  0001 C CNN
	1    5900 4800
	1    0    0    -1  
$EndComp
Wire Wire Line
	5900 4400 5900 4200
Wire Wire Line
	5500 3900 5100 3900
Connection ~ 5500 3900
Wire Wire Line
	5600 3000 5100 3000
Wire Wire Line
	5100 3000 5100 3900
Wire Wire Line
	5600 4600 5100 4600
Text Label 5100 4600 0    50   ~ 0
PWR_ON
$Comp
L power:+12V #PWR0102
U 1 1 5C5355DA
P 6300 3900
F 0 "#PWR0102" H 6300 3750 50  0001 C CNN
F 1 "+12V" H 6315 4073 50  0000 C CNN
F 2 "" H 6300 3900 50  0001 C CNN
F 3 "" H 6300 3900 50  0001 C CNN
	1    6300 3900
	1    0    0    -1  
$EndComp
Wire Wire Line
	6100 3900 6300 3900
$Sheet
S 5600 2900 600  400 
U 5C57E6F2
F0 "5VSB" 50
F1 "5VSB.sch" 50
F2 "VIN" I L 5600 3000 50 
F3 "VOUT" O R 6200 3000 50 
F4 "PG" O R 6200 3200 50 
$EndSheet
Wire Wire Line
	6200 3000 6500 3000
Text Label 6500 3000 2    50   ~ 0
+5VSB
$Comp
L Device:Q_PMOS_SGD Q1
U 1 1 5C58A6FD
P 5900 4000
F 0 "Q1" V 6243 4000 50  0000 C CNN
F 1 "Q_PMOS_SGD" V 6152 4000 50  0000 C CNN
F 2 "Package_SO:PowerPAK_SO-8_Single" H 6100 4100 50  0001 C CNN
F 3 "~" H 5900 4000 50  0001 C CNN
	1    5900 4000
	0    1    -1   0   
$EndComp
Connection ~ 5900 4200
$Comp
L Device:Q_NMOS_GSD Q2
U 1 1 5C58AD75
P 5800 4600
F 0 "Q2" H 6005 4646 50  0000 L CNN
F 1 "Q_NMOS_GSD" H 6005 4555 50  0000 L CNN
F 2 "Package_TO_SOT_SMD:SOT-416" H 6000 4700 50  0001 C CNN
F 3 "~" H 5800 4600 50  0001 C CNN
	1    5800 4600
	1    0    0    -1  
$EndComp
$Comp
L power:+12V #PWR?
U 1 1 5C710973
P 5100 2900
F 0 "#PWR?" H 5100 2750 50  0001 C CNN
F 1 "+12V" H 5115 3073 50  0000 C CNN
F 2 "" H 5100 2900 50  0001 C CNN
F 3 "" H 5100 2900 50  0001 C CNN
	1    5100 2900
	1    0    0    -1  
$EndComp
Wire Wire Line
	5100 3000 5100 2900
Connection ~ 5100 3000
$EndSCHEMATC
